subject,run,stim_side,response,RT,accuracy,confidence,RT_conf
41,1,2,2,3.05666553900005,1,2,1.81959589600001
41,1,1,1,2.87444711199987,1,3,0.82936497500009
41,1,2,2,2.30718596500014,1,3,0.760784224999952
41,1,1,1,2.74111627800016,1,2,0.56660001299997
41,1,1,1,2.94017946500003,1,3,0.694898301999956
41,1,2,2,3.19062742300002,1,2,0.719690786000001
41,1,1,1,3.90519317799999,1,2,0.883698340000137
41,1,1,1,2.67362259000015,1,3,0.504138650999948
41,1,1,2,3.55783361400017,0,2,0.902982455999791
41,2,1,1,2.6751924990001,1,3,1.38662045800015
41,2,1,1,3.12317792199997,1,4,0.696459959000094
41,2,2,1,3.67414334199998,0,2,0.666003018000083
41,2,2,2,3.77426472799993,1,2,0.437120451999817
41,2,1,1,3.30702529199993,1,2,0.732380876999969
41,2,1,1,2.78984037700002,1,4,0.999523828000065
41,2,1,1,3.15679766599987,1,2,0.824129595999921
41,2,2,2,3.43991714900017,1,3,1.19794366399992
41,2,2,2,3.1569408050002,1,3,0.850036555000088
41,2,2,1,3.13863848699998,0,2,0.894450239999969
41,3,2,1,2.80760789999999,0,4,0.959862694999856
41,3,1,2,2.78986972300004,0,2,1.10960024999986
41,3,2,2,2.65651955199996,1,4,0.517109268000013
41,3,1,1,2.08972280599983,1,4,1.33061418400007
41,3,1,2,3.44043952100014,0,2,0.581104086000096
41,3,1,1,2.97343731000001,1,3,0.911717456000133
41,3,2,2,3.15625212000009,1,1,0.901591708000069
41,3,1,2,3.24046741300003,0,2,0.854466784000124
41,3,1,2,4.24065803300005,0,3,0.321135833999961
41,3,2,2,2.72254781700008,1,4,0.58750527899997
41,3,1,2,3.27335964500003,0,3,0.366664655000022
41,4,2,2,2.27374333700004,1,4,0.699284820999992
41,4,1,1,2.52338188299996,1,2,0.797822304000192
41,4,2,1,4.42361921200018,0,2,0.392978316999915
41,4,2,2,2.49005937499987,1,3,0.301651473999982
41,4,2,2,2.07274667800016,1,4,1.09719513800019
41,4,1,1,2.45617365500016,1,4,0.547635922999916
41,4,2,2,2.95682039300004,1,4,0.438864549000073
41,4,2,2,3.28973994600005,1,4,0.143655594999927
41,4,1,1,2.93911208600002,1,2,1.65593329499984
41,4,1,2,2.79009721099987,0,1,0.667564069000036
41,4,1,1,3.02308645300013,1,3,0.835555696000029
41,5,1,1,2.97556708699994,1,2,0.413270335000107
41,5,2,2,2.55632344500009,1,3,0.360374669000066
41,5,2,2,2.42367511499992,1,3,0.312519320000092
41,5,2,2,3.75696898499996,1,2,0.316154286000028
41,5,1,1,2.55655220499989,1,3,0.529591372000141
41,5,2,2,3.17337400099996,1,3,0.211229774000003
41,5,1,1,3.44045551699992,1,2,0.112336305000099
41,5,2,2,2.94024043299987,1,1,0.536221023000053
41,5,1,1,2.63958681100007,1,3,0.514468420999947
41,5,2,2,2.48952901799998,1,4,0.132759937999936
41,5,2,2,3.52358691399991,1,4,1.88389677199984
41,6,1,2,3.05804128800014,0,2,1.29019224699982
41,6,1,1,2.13962560099981,1,4,1.18533524900022
41,6,2,1,2.98968232300012,0,2,0.21110438300002
41,6,2,2,3.02370750099999,1,4,1.11937896399991
41,6,1,1,3.5408917289999,1,3,0.329697952999823
41,6,2,2,2.75877264999986,1,2,0.746069959000124
41,6,2,2,4.24002159499992,1,3,0.846038373000056
41,6,1,1,3.33991379000008,1,1,0.23660661200006
41,6,1,1,3.10624529100005,1,1,0.654101746999913
41,6,1,1,2.9065926830001,1,4,0.374215936999917
41,6,1,1,2.9399379030001,1,3,0.31573153699992
41,6,2,1,3.6068428829999,0,2,0.223916191999933
41,7,2,2,2.62454684199997,1,4,0.441775738999922
41,7,2,2,2.35636519700006,1,4,0.494263756999999
41,7,2,2,2.72144831900005,1,4,0.380984144999957
41,7,2,1,2.60764958699997,0,3,0.894892232999837
41,7,1,1,3.12352660400006,1,2,1.39923950899993
41,7,1,1,3.2917387519999,1,2,0.797065310999869
41,7,2,2,2.6223078779999,1,3,0.93429124499994
41,7,2,2,3.12421106700003,1,4,0.386498888000006
41,7,2,2,2.84210576800001,1,2,0.39953708500002
41,7,1,1,2.35655618500004,1,4,1.05903431699994
41,7,2,1,3.14186052000014,0,2,0.664377472000069
41,7,2,2,3.19180193700004,1,4,0.204865487999996
41,7,2,2,2.50914333800006,1,4,0.0866118819999429
41,8,2,2,2.82394832400018,1,3,0.491354220000176
41,8,2,1,2.54108994000012,0,2,0.796757578000097
41,8,1,1,2.58994216899987,1,2,1.21311309099997
41,8,1,2,2.49165053299998,0,3,0.583028774000013
41,8,1,1,2.6410535760001,1,1,0.750304842999867
41,8,2,2,3.02533330999995,1,3,1.03714947200001
41,8,1,1,2.87308547600014,1,3,1.22441069899992
41,8,1,1,3.07194437500016,1,1,1.47729633900008
41,8,1,2,3.65765233299999,0,4,1.34798058299998
41,8,2,2,4.17305943999986,1,4,0.229094961999863
41,8,2,2,3.43993845,1,4,0.669658464000122
41,8,1,2,4.60938436300012,0,4,0.792305821000127
41,8,1,2,2.3895302819999,0,3,0.511329998000065
41,9,1,1,3.35971466299998,1,2,0.307531333999805
41,9,1,1,2.3585723990002,1,3,0.361260241999844
41,9,1,2,2.80654586000014,0,3,0.473727492999842
41,9,1,2,2.90560375500013,0,1,0.263090250999994
41,9,2,1,3.24244404799992,0,1,0.126478053000028
41,9,2,2,2.63793083299993,1,3,0.0749414100000649
41,9,1,1,2.5559563459999,1,4,0.666246380999837
41,9,2,2,3.28923996499998,1,4,0.199124428999994
41,9,1,2,3.82305016600003,0,2,0.184478606000084
41,9,1,1,2.62200938399997,1,4,0.392209532000152
41,9,2,1,4.63992742799996,0,2,0.453504215000066
41,9,1,1,3.02334964399984,1,4,0.526176139999961
41,9,2,2,2.49206374300002,1,4,0.508849726000108
41,10,1,2,2.74076365499991,0,2,1.20041710500004
41,10,2,2,2.75946978399998,1,2,1.07325246699997
41,10,2,2,2.83908453100003,1,2,1.36043720199996
41,10,1,1,2.38864127699981,1,4,1.26868915800014
41,10,1,1,2.79177007599992,1,2,0.4447702020002
41,10,2,2,2.84132501599993,1,4,1.06774177199986
41,10,2,2,2.43868734900002,1,4,0.138901826999927
41,10,2,2,4.7264005049999,1,1,0.349566975000016
41,10,2,2,2.88928616900012,1,1,0.1851537739999
41,10,2,2,2.03850673400007,1,4,0.751371797000047
41,10,1,2,3.84130557499998,0,3,0.698695396999938
41,10,2,2,2.88931955199996,1,1,0.693043149999994
41,10,2,2,2.77239201800012,1,2,0.367752899999914
41,11,1,1,2.82602574100019,1,4,0.694365123999887
41,11,2,1,2.23864286399976,0,3,0.529182759000378
41,11,2,2,2.27113922700028,1,4,0.58620080000037
41,11,2,2,2.59076046300015,1,2,0.449897042999964
41,11,1,1,2.45548823400031,1,4,0.412692552999943
41,11,1,1,2.5587094980001,1,4,1.27647865000017
41,11,1,1,3.97371753499965,1,1,0.380038511000294
41,11,1,2,2.98916273399982,0,3,0.164933129000019
41,11,1,1,2.45550039699992,1,4,0.170927099999972
41,11,2,2,3.27260632100024,1,2,0.354396406999967
41,11,1,1,3.43933850900021,1,2,0.276473514999907
41,11,2,1,3.02262783800006,0,3,0.199247650999951
41,11,2,2,2.83910824800023,1,2,0.145056197000031
41,12,1,1,2.89235932699967,1,3,0.419303356
41,12,1,1,2.40551359899973,1,4,0.557200040000225
41,12,1,1,2.50750737900034,1,4,0.389745601999948
41,12,2,2,3.22610843800021,1,2,0.20381458699967
41,12,1,2,3.24281325399988,0,2,0.229251234999992
41,12,1,1,2.80892122999967,1,4,0.370625248000124
41,12,2,2,2.50798648299997,1,4,0.217598941000233
41,12,2,2,3.18942509499993,1,2,0.616049628999917
41,12,1,1,3.38907839400008,1,2,1.31570637499999
41,12,1,1,3.07146830000011,1,1,0.386997632000202
41,12,2,2,3.32197957000017,1,4,0.133706998999969
41,12,2,2,2.90568981500019,1,3,0.329716579999968
41,12,2,2,3.95918996599994,1,1,0.0872335869999006
41,12,2,2,3.43934399499994,1,1,0.438574128000255
41,13,2,2,2.9078007940002,1,3,0.308908275999784
41,13,2,1,2.776082976,0,3,0.465185571000347
41,13,2,2,2.80555869699992,1,1,0.0608635329999743
41,13,1,1,3.19246396599965,1,4,1.27570287199978
41,13,1,2,2.76015679700004,0,2,0.119913309999902
41,13,1,1,3.07469667600026,1,3,0.268103800999597
41,13,1,1,3.02248882599997,1,3,1.30061928299983
41,13,2,1,2.74076774100013,0,4,0.524302449000061
41,13,2,2,2.52223027700029,1,4,0.0296851179996338
41,13,1,1,2.42566964099979,1,4,0.269495980000102
41,13,1,1,2.48908815899995,1,4,0.580508817000009
41,13,2,2,3.4063285709999,1,2,0.210371561999636
41,13,2,1,2.50577698699999,0,4,0.386770953999985
41,13,2,2,3.14321998300011,1,4,1.34609462100025
41,13,2,2,3.05891636000024,1,2,0.0545721580001555
41,14,2,2,3.00573438399988,1,3,1.09899431199983
41,14,2,2,2.28953078299992,1,3,0.939095319999979
41,14,1,1,2.02040327000032,1,3,1.17595403199994
41,14,2,1,2.79249527899992,0,2,0.476892306000082
41,14,2,2,2.73922896600016,1,3,0.694266969999717
41,14,2,2,3.34028060500032,1,3,0.151582599999983
41,14,2,2,3.64204198800007,1,2,0.0677946920000068
41,14,2,1,3.05807071499976,0,3,0.257063007999932
41,14,2,2,2.97595757299996,1,4,1.13939935300004
41,14,1,2,3.00821564200032,0,3,0.0748571959998117
41,14,2,2,2.90973273000009,1,1,0.250851400000101
41,14,2,1,3.13792419899983,0,1,0.074186544999975
41,14,2,1,2.35496594799997,0,1,0.0842464569996082
41,14,2,1,3.28854958200009,0,2,0.231501002000186
41,14,1,1,3.01012206599989,1,2,0.10653640999999
41,14,2,1,2.77443870699972,0,3,0.236053951000031
41,15,1,1,3.09210170299957,1,3,1.02513801300029
41,15,1,2,3.02134307799997,0,2,1.66996579900024
41,15,1,1,2.93876307100027,1,3,0.0549862640000356
41,15,2,2,2.02034119199971,1,4,1.20694490200003
41,15,1,2,3.70952970899998,0,2,0.18856150900001
41,15,1,1,2.82328340799995,1,3,0.430727685999955
41,15,1,1,3.40908742200008,1,4,0.361245818000043
41,15,2,2,2.82567981900002,1,4,0.380561436000335
41,15,2,2,2.69111524699974,1,4,0.113500921000195
41,15,2,2,2.07189445699987,1,4,0.0418805539998175
41,15,1,1,2.70540704799987,1,4,0.29046248099985
41,15,2,2,2.90443660299979,1,2,0.105550338999819
41,15,2,1,2.50657149199969,0,1,0.14466531700009
41,15,2,1,2.89249768800028,0,1,0.364982928000245
41,15,1,1,3.28791882099995,1,1,0.0295721430002232
41,15,2,1,2.63963527399983,0,2,0.386512854000102
