subject,run,stim_side,response,RT,accuracy,confidence,RT_conf
38,1,2,1,0.623564592009643,0,2,0.676279166000313
38,1,2,1,1.40577138900699,0,1,0.241023802998825
38,1,2,1,0.55718943401007,0,3,0.22805371999857
38,1,2,1,0.522473864999483,0,3,0.476268717000494
38,1,1,2,0.903941013995791,0,1,0.620372399993357
38,1,2,1,0.590718545005075,0,2,0.250654211995425
38,1,2,2,0.604928276006831,1,3,0.268972131001647
38,1,2,2,0.762651907003601,1,2,0.432840782988933
38,1,2,1,0.695051349001005,0,2,0.314704509000876
38,1,1,1,0.515683681005612,1,3,0.217924173994106
38,1,2,2,0.999836728005903,1,3,0.19817567699647
38,1,2,2,0.564392116997624,1,4,0.375563686000532
38,1,1,1,0.501750639014062,1,4,0.217503334002686
38,1,2,2,0.608253277008771,1,3,0.313588303994038
38,1,2,1,0.5358205550001,0,3,0.293280591999064
38,1,1,1,0.520608871011063,1,4,0.185823891995824
38,1,1,1,0.849033192993375,1,4,0.212259732012171
38,1,2,1,0.548368875010055,0,4,1.59288651600946
38,1,2,1,0.712311904004309,0,2,0.366487100996892
38,1,1,1,0.608849340002052,1,3,0.185770586991566
38,1,2,1,0.614070752999396,0,1,0.218482605996542
38,1,2,2,0.571803161990829,1,2,0.231063827988692
38,1,1,1,0.524586530998931,1,3,0.21158349000325
38,1,1,1,0.472658636994311,1,4,0.21105745100067
38,1,1,1,0.470289078002679,1,4,0.287791538998135
38,1,2,2,0.571100357003161,1,4,0.218368602989358
38,1,2,1,0.568532706995029,0,2,0.339286713002366
38,1,1,1,0.565258586007985,1,3,0.223910931992577
38,1,1,1,0.616959805003717,1,4,0.236595354988822
38,1,1,1,0.459329021003214,1,4,0.211318147994461
38,2,1,1,0.77493238299212,1,2,0.281630432989914
38,2,2,1,0.684561475005466,0,1,0.24375031600357
38,2,1,1,0.677149803988868,1,1,0.300274174995138
38,2,2,2,0.477207971998723,1,3,0.263250663992949
38,2,1,1,0.711770698006148,1,2,0.48423935000028
38,2,2,2,0.565657316998113,1,3,0.224080195010174
38,2,1,1,0.587823382011265,1,4,0.191723583004205
38,2,1,1,0.668618456998956,1,3,0.270637637993786
38,2,2,2,0.518873495995649,1,3,0.275101145991357
38,2,1,1,0.772967748998781,1,1,0.24246992400731
38,2,2,1,0.804638715009787,0,2,0.26499480700295
38,2,2,2,0.606309397000587,1,2,0.308765220994246
38,2,1,1,0.555674948001979,1,2,0.244297635988914
38,2,1,1,0.598365644997102,1,2,0.264394616009668
38,2,1,1,0.593792302010115,1,2,0.308682183007477
38,2,2,2,0.501235540999915,1,3,0.26287110899284
38,2,1,2,0.512133127005654,0,3,0.251236466996488
38,2,2,2,0.573779954007477,1,1,0.215320394010632
38,2,1,1,0.594002815007116,1,3,0.201037279999582
38,2,1,1,0.80329942399112,1,2,0.201257449996774
38,2,1,2,0.488304630009225,0,2,0.306621055991855
38,2,1,1,0.658913050996489,1,2,0.255780175008113
38,2,2,2,0.431579220996355,1,3,0.32880503499473
38,2,2,2,0.463394271006109,1,3,0.261959048992139
38,2,2,2,0.885016290005296,1,1,0.249439744002302
38,2,1,2,0.557864041998982,0,2,0.382744536997052
38,2,1,1,0.90194975900522,1,1,0.243600958012394
38,2,1,2,0.811597124993568,0,1,0.335163726995233
38,2,2,2,0.856819954991806,1,1,0.238097091991222
38,2,2,1,0.908023971001967,0,2,0.236912970998674
38,3,2,2,0.488094495987752,1,2,0.268958189000841
38,3,1,2,0.457136261000414,0,2,0.26912413899845
38,3,1,1,0.658058190005249,1,3,0.185489844996482
38,3,2,2,0.643120181994163,1,2,0.244056523006293
38,3,1,2,0.692860574999941,0,2,0.249984497000696
38,3,1,1,0.879225511002005,1,3,0.207817585003795
38,3,1,1,0.544376477002515,1,3,0.156010396996862
38,3,1,1,0.605947186006233,1,3,0.238331640997785
38,3,1,1,0.598065298996517,1,3,0.249487244989723
38,3,2,2,0.495587117999094,1,3,0.354030636997777
38,3,1,1,0.65187490999233,1,1,0.230387951000012
38,3,1,1,0.574443614998017,1,1,0.347831332008354
38,3,2,2,1.22286337599508,1,2,0.204412229999434
38,3,2,1,0.555631883005844,0,2,0.339235858002212
38,3,1,1,0.539967035001609,1,2,0.0720416590047535
38,3,1,1,0.612332877004519,1,1,0.308321243006503
38,3,1,1,0.539440668988391,1,2,0.234179588995175
38,3,1,1,0.574094978001085,1,1,0.241242856995086
38,3,2,1,0.482764714994119,0,1,0.256320820000838
38,3,1,1,0.475232452998171,1,2,0.28356504101248
38,3,1,1,0.495436734010582,1,2,0.366525509001804
38,3,1,1,0.490376692003338,1,3,0.268712229997618
38,3,2,1,0.619660219992511,0,1,0.365149119999842
38,3,1,2,0.866111331008142,0,3,0.230817472998751
38,3,2,1,0.477128708007513,0,2,0.403118797999923
38,3,1,1,0.640073590999236,1,2,0.304736595004215
38,3,2,1,0.515649137989385,0,2,0.215149556999677
38,3,1,1,0.618352418998256,1,2,0.236231506001786
38,3,1,2,0.480231423993246,0,1,0.264023383992026
38,3,1,1,0.731298368002172,1,2,0.230124520006939
38,4,1,1,0.464009772011195,1,3,0.199469145998592
38,4,2,1,0.602671398999519,0,4,0.196079777990235
38,4,1,1,0.488116537002497,1,4,1.4325718809996
38,4,1,1,0.528330888002529,1,3,0.304650922989822
38,4,2,1,0.530212060999474,0,2,0.4094345850026
38,4,1,1,0.485567436000565,1,3,0.244697104993975
38,4,2,2,0.684551555998041,1,1,0.279847875994164
38,4,1,2,0.966726361002657,0,1,0.306883587007178
38,4,2,2,0.63085957999283,1,1,0.28765752199979
38,4,1,2,0.824770431994693,0,1,0.187650820997078
38,4,2,2,0.718442779994803,1,1,0.216745883997646
38,4,2,2,0.512862073010183,1,2,0.281152367999312
38,4,1,2,0.607406896000612,0,2,0.233600135994493
38,4,1,1,0.542748078994919,1,2,0.279781486009597
38,4,2,2,0.602813776000403,1,2,0.365696998007479
38,4,2,2,0.636421168994275,1,2,0.353318060006131
38,4,1,1,1.04207122899243,1,2,0.430536344007123
38,4,2,2,0.43548907499644,1,2,0.48348373400222
38,4,2,2,0.494542227999773,1,3,0.253056974994252
38,4,2,2,0.531184576000669,1,3,0.215451034993748
38,4,1,1,0.470278673004941,1,3,0.230683920992306
38,4,2,1,0.87020201300038,0,1,0.195142980999663
38,4,2,2,0.68820212900755,1,2,0.330105386994546
38,4,1,2,0.596901862008963,0,1,0.278622134006582
38,4,2,1,0.731679939999594,0,2,0.312028806001763
38,4,2,2,0.730427557005896,1,2,0.314592739989166
38,4,2,2,0.464720876989304,1,3,0.337937747011892
38,4,1,2,0.719996657004231,0,4,0.293281477002893
38,4,2,2,0.535417740989942,1,3,0.314982795985998
38,4,2,2,0.47321042099793,1,4,0.217224195002927
38,5,1,2,0.42631252600404,0,3,0.238182221000898
38,5,2,2,0.45418341900222,1,3,0.28992746899894
38,5,1,1,0.526211365999188,1,3,0.250964510007179
38,5,2,2,0.428524843009654,1,4,0.228380926986574
38,5,2,2,0.459222217003116,1,4,0.267205222990015
38,5,2,2,0.433577564996085,1,4,0.231379521996132
38,5,2,2,0.427511655987473,1,4,0.249558160998276
38,5,2,1,0.503976009000326,0,3,0.259558160993038
38,5,1,2,0.391238645999692,0,4,0.250443518991233
38,5,1,2,0.388830200012308,0,4,0.302422709995881
38,5,2,2,0.472248723002849,1,3,0.250976481998805
38,5,1,2,0.502222451992566,0,3,0.283313635009108
38,5,2,2,0.611404067996773,1,2,0.262136018005549
38,5,1,1,0.593819377987529,1,3,0.301970045999042
38,5,2,2,0.483619158010697,1,4,0.284482428003685
38,5,1,1,0.489967319997959,1,3,0.244536131009227
38,5,1,2,0.413927386995056,0,4,0.201436182003818
38,5,1,2,0.518886425998062,0,4,0.253824222003459
38,5,2,2,0.468840711997473,1,4,0.219976766005857
38,5,2,2,0.332493468013126,1,4,0.202974382002139
38,5,2,2,0.270557198993629,1,4,0.21425892598927
38,5,2,2,0.401711996993981,1,4,0.197816854997654
38,5,1,2,0.708978984010173,0,2,0.223093590990175
38,5,2,2,0.410798322001938,1,3,0.326559250010177
38,5,2,1,0.803874801000347,0,2,0.247565857003792
38,5,2,2,0.360443262004992,1,3,0.29365446799784
38,5,1,1,0.627611377989524,1,2,0.26435598199896
38,5,1,1,0.582961477004574,1,2,0.246880963997683
38,5,2,2,0.437440715002595,1,3,0.250006502014003
38,5,1,1,0.688188201995217,1,3,0.336745901993709
38,6,1,2,0.386985854012892,0,2,0.195877058009501
38,6,1,2,0.435951053004828,0,2,0.2436940530024
38,6,2,1,0.495170487003634,0,3,0.288328084003297
38,6,2,1,0.558557754004141,0,1,0.207451477006543
38,6,2,1,0.54917890499928,0,1,0.202167020004708
38,6,2,2,0.47296078200452,1,2,0.356411278000451
38,6,2,2,0.671162630998879,1,1,0.234289854997769
38,6,1,2,0.625391973997466,0,1,0.230610958999023
38,6,1,1,0.522285936007393,1,3,0.219234945994685
38,6,2,2,0.470777898008237,1,3,0.32876975700492
38,6,1,1,0.581772106001154,1,3,0.202244668005733
38,6,1,1,0.488628264996805,1,4,0.189388469996629
38,6,1,1,0.519560610002372,1,4,0.24944156499987
38,6,2,1,0.683608027000446,0,4,0.300554162997287
38,6,1,1,0.437963563002995,1,4,0.203424250998069
38,6,2,1,0.504814198997337,0,3,0.216803674004041
38,6,2,1,0.865951846993994,0,1,0.180495282998891
38,6,1,1,0.514203632003046,1,3,0.216489238999202
38,6,1,1,0.383307063995744,1,4,0.223772639001254
38,6,1,1,0.386918951990083,1,4,0.201249901001574
38,6,2,2,0.535530888009816,1,3,0.206429501995444
38,6,2,1,0.473142830000143,0,2,0.135491211010958
38,6,1,1,0.573832545996993,1,3,0.239810311002657
38,6,2,2,0.491097816004185,1,2,0.314562772997306
38,6,2,2,0.502045325003564,1,1,0.201742680001189
38,6,2,2,0.82909516300424,1,1,0.175483800994698
38,6,1,1,0.426872138996259,1,3,0.474702368999715
38,6,2,2,0.493466757994611,1,2,0.218792867002776
38,6,2,1,0.841834430000745,0,2,0.253759557992453
38,6,1,1,0.379688978995546,1,3,0.571530944987899
