subject,run,stim_side,response,RT,accuracy,confidence,RT_conf
13,1,1,1,3.00702858995646,1,2,3.35646760894451
13,1,2,2,2.77465512196068,1,3,0.407401470001787
13,1,2,2,2.60661224508658,1,1,0.431163081084378
13,1,2,2,2.45674719102681,1,1,0.276543705025688
13,1,2,1,2.5902668510098,0,2,0.802287081955001
13,1,1,1,3.47385846090037,1,2,0.67349654098507
13,1,1,1,2.3899527839385,1,4,0.753525801934302
13,1,2,2,2.59031123295426,1,4,0.837304224027321
13,1,1,1,2.50863360404037,1,4,0.530453910003416
13,1,2,1,4.10770607495215,0,1,0.300193562987261
13,1,2,1,2.95676619990263,0,2,0.952926411991939
13,1,1,2,2.69037893903442,0,3,0.635333415935747
13,2,2,2,2.32462701795157,1,4,0.641396516002715
13,2,2,2,2.59017884393688,1,4,0.0279872410465032
13,2,2,2,3.03983864805195,1,2,0.473299506935291
13,2,1,1,2.35659561795183,1,4,0.204230774077587
13,2,2,2,2.60672265291214,1,4,0.439975822926499
13,2,1,1,2.62331674993038,1,1,1.18747444101609
13,2,1,1,2.38984301500022,1,4,0.642143968958408
13,2,1,1,3.55729403498117,1,2,0.367477203020826
13,2,2,2,2.49095908203162,1,4,0.568580080987886
13,2,2,2,2.62206041906029,1,4,0.496754389023408
13,2,2,2,2.84008443495259,1,3,0.543597014970146
13,2,2,2,2.58984922198579,1,4,0.464135295012966
13,3,1,2,2.84003216295969,0,1,0.711503893020563
13,3,2,2,2.84007218596525,1,1,0.419676308054477
13,3,1,1,2.40645332704298,1,4,0.31348311691545
13,3,2,2,2.5733817210421,1,3,0.42900164204184
13,3,2,1,4.30702358298004,0,2,0.667641583946534
13,3,1,1,2.83962899807375,1,2,0.391505399951711
13,3,1,1,2.89005830406677,1,2,1.0246032460127
13,3,2,1,2.52283340704162,0,2,0.307851842953824
13,3,1,1,2.99012653098907,1,3,0.38095284497831
13,3,1,1,2.63945408992004,1,2,0.413292592042126
13,3,1,1,3.37323550507426,1,2,0.547318528988399
13,3,1,1,2.62210276897531,1,4,0.309230451006442
13,3,2,1,2.75882080802694,0,2,1.14855308597907
13,4,1,1,2.44066525099333,1,4,0.463456192053854
13,4,1,1,2.5391984579619,1,3,0.402078303974122
13,4,2,2,2.33932935399935,1,4,0.398840098059736
13,4,2,2,2.8236880900804,1,1,1.82008433400188
13,4,1,2,3.78992485895287,0,2,1.19389570003841
13,4,1,2,2.5897832729388,0,1,2.95577832404524
13,4,1,1,2.85647245997097,1,3,1.60012266400736
13,4,1,1,2.40618611406535,1,4,0.350175885949284
13,4,2,2,3.62371167796664,1,4,1.08818952890579
13,4,2,2,2.8068842489738,1,3,1.53721523901913
13,4,1,1,3.87435934005771,1,1,1.59347794193309
13,4,2,2,2.70693389000371,1,2,1.19443205802236
13,4,1,1,3.02342607406899,1,2,3.96928382199258
13,4,2,2,2.90640159300528,1,3,1.71724149305373
13,5,1,1,2.44139196095057,1,4,0.496410172898322
13,5,1,1,2.32272384001408,1,4,0.342582009034231
13,5,1,1,2.40622139489278,1,3,0.652319001033902
13,5,2,1,2.75536467402708,0,3,0.815963199944235
13,5,2,2,2.55670691502746,1,3,0.564697384950705
13,5,2,1,2.30605950800236,0,3,0.52379457000643
13,5,1,1,2.45632964209653,1,2,0.36002521100454
13,5,2,2,2.35605911898892,1,3,0.829177781008184
13,5,2,2,2.58969100902323,1,3,0.610336845042184
13,5,2,1,2.32260920002591,0,1,1.55464188498445
13,5,1,1,2.38965449796524,1,4,0.953119248966686
13,5,1,1,3.32345111994073,1,4,0.590873261913657
13,5,1,1,2.99034770799335,1,2,0.588076684973203
13,5,1,1,2.38962976902258,1,4,0.496898064971901
13,6,1,1,2.50934947095811,1,2,0.868214894086123
13,6,2,2,2.35748605895787,1,4,0.399237527046353
13,6,2,2,2.55880321096629,1,2,1.24538346903864
13,6,2,2,2.74023980798665,1,2,1.25177391502075
13,6,2,2,2.64019201090559,1,3,0.562020223936997
13,6,2,2,2.43996886105742,1,4,0.454449543030933
13,6,1,2,2.67289089399856,0,3,0.58172806201037
13,6,2,2,2.35615971405059,1,4,0.574058911995962
13,6,2,2,2.47377074602991,1,4,0.510341173969209
13,6,2,2,2.55782779399306,1,4,0.537205767934211
13,6,1,2,2.40682589507196,0,3,0.381616547005251
13,6,1,2,2.84203204500955,0,2,1.55083354597446
13,6,1,1,2.88962080795318,1,4,1.05011515098158
13,6,2,2,2.62314343603794,1,4,0.546919092070311
13,6,1,2,2.42323101102374,0,2,0.758094158023596
13,7,2,1,2.47503018099815,0,2,0.463364404975437
13,7,1,2,2.57379118201789,0,2,1.02076456905343
13,7,1,1,2.35574858891778,1,4,0.445882069063373
13,7,1,1,2.8900216280017,1,2,0.491670429939404
13,7,2,2,2.72287055500783,1,3,0.3934839470312
13,7,2,2,2.68991913693026,1,3,0.307526931981556
13,7,2,2,2.37314459204208,1,3,0.386116776033305
13,7,1,1,2.75487086107023,1,2,0.876603956101462
13,7,1,1,2.42329307994805,1,4,0.330751638975926
13,7,1,1,2.99206442700233,1,2,0.419090403942391
13,7,1,1,2.30589590105228,1,4,0.595222303061746
13,7,2,1,2.30624463304412,0,2,0.387890434940346
13,7,1,1,4.37573637999594,1,1,1.58512114302721
13,7,1,1,2.92193662107456,1,1,0.263182313996367
13,7,1,2,2.37448899797164,0,2,0.399155115010217
13,8,2,1,2.85886788088828,0,2,0.478452614042908
13,8,1,1,2.27238948002923,1,4,0.713055321015418
13,8,2,2,2.33839540497866,1,4,0.372970424010418
13,8,1,1,2.38925896806177,1,4,0.378015379072167
13,8,2,2,2.40787979611196,1,4,0.40492061607074
13,8,2,2,2.47451869002543,1,3,0.86760738492012
13,8,1,2,3.48996579495724,0,3,0.334270752035081
13,8,2,2,2.85704239003826,1,4,0.589211347978562
13,8,2,2,2.59214552899357,1,4,0.535278853029013
13,8,1,1,2.32406067603733,1,4,0.629520307993516
13,8,1,1,2.3915029669879,1,4,0.478821282973513
13,8,1,1,3.01320390799083,1,4,0.615033287904225
13,8,1,1,2.64090351900086,1,1,0.333752447040752
13,8,1,1,2.33923505898565,1,4,1.76207294594496
13,8,2,2,2.59084573201835,1,4,1.73593942599837
13,9,2,2,2.35909817600623,1,4,0.533251214073971
13,9,2,2,2.39014103799127,1,2,0.347259707050398
13,9,2,2,2.30810784304049,1,4,0.447107104933821
13,9,2,2,2.39188085193746,1,3,0.399845239007846
13,9,2,1,2.69209148804657,0,2,0.417169125052169
13,9,2,2,2.34127267997246,1,4,0.574243290000595
13,9,2,2,2.37328552699182,1,4,0.411814565071836
13,9,1,1,2.52312879508827,1,4,0.419760804041289
13,9,1,1,2.60616454400588,1,2,0.795618057949468
13,9,1,1,2.80813054589089,1,2,1.16340994101483
13,9,2,2,2.82499206310604,1,3,2.09468546905555
13,9,2,2,2.74321274796966,1,3,0.471113171079196
13,9,2,2,2.25782948301639,1,4,0.345780916977674
13,9,2,2,2.80934457504191,1,3,1.28477193997242
13,9,2,1,3.17328033107333,0,3,1.51325724401977
13,10,1,1,2.62613033794332,1,3,0.586851382977329
13,10,2,2,2.57601243199315,1,2,0.380499846069142
13,10,2,1,2.62553981400561,0,2,0.464915641932748
13,10,1,1,2.82529365597293,1,2,0.307333250995725
13,10,1,1,2.53883579408284,1,2,0.365898479009047
13,10,2,2,2.32595217495691,1,4,0.277006399002858
13,10,2,2,2.67500873596873,1,3,0.43685632199049
13,10,2,2,2.52429731201846,1,4,0.28216599591542
13,10,1,1,2.34278555796482,1,4,0.51082879700698
13,10,1,2,2.62639264808968,0,2,0.419755317037925
13,10,1,1,2.4087454470573,1,3,1.76829733501654
13,10,2,2,2.44102406594902,1,2,2.08359909895808
13,10,2,2,2.37452628696337,1,2,0.918881778954528
13,10,2,2,2.44108233705629,1,4,0.581387719954364
13,10,1,1,2.57529396901373,1,2,0.710888828965835
13,10,1,2,2.37546879402362,0,2,1.18720460101031
13,11,1,2,2.39272710203659,0,2,0.394194594002329
13,11,1,2,2.44195908110123,0,2,1.01124662603252
13,11,1,2,2.58784465491772,0,3,0.341553160920739
13,11,2,2,2.30618110799696,1,4,0.560663239099085
13,11,1,1,2.32566944102291,1,4,0.488279999000952
13,11,1,2,2.74133892706595,0,2,0.625031151925214
13,11,2,2,2.30874121002853,1,2,1.35043780901469
13,11,1,2,2.40817692899145,0,3,1.13388970703818
13,11,1,1,2.45728755602613,1,2,0.566114988061599
13,11,2,2,2.40757758601103,1,2,0.759156786953099
13,11,2,2,2.27299490303267,1,4,0.376100993016735
13,11,1,2,2.57497585599776,0,3,0.711490104091354
13,11,1,1,2.74198718799744,1,4,0.445589897106402
13,11,1,2,2.64217593008652,0,3,0.628857252071612
13,11,2,2,2.25648125901353,1,4,0.515905373031273
13,11,2,2,3.18981615407392,1,1,0.294429412926547
13,11,2,2,3.02644903690089,1,1,1.72810440103058
13,12,1,1,3.54322572401725,1,2,0.354464320931584
13,12,2,2,3.6754401200451,1,2,0.210651272092946
13,12,1,1,2.44308632100001,1,3,0.496415461995639
13,12,2,2,2.75990827998612,1,2,0.536936632939614
13,12,1,2,2.82229310006369,0,2,1.33631282299757
13,12,2,1,2.29062854300719,0,2,0.543270525988191
13,12,2,1,2.43936924403533,0,2,0.736323317978531
13,12,2,2,2.38791518099606,1,2,0.802659898996353
13,12,2,2,2.29107865202241,1,4,0.255958750029095
13,12,2,2,2.32414541800972,1,4,0.417795070912689
13,12,2,2,2.50867592799477,1,3,0.3809756829869
13,12,1,2,3.09309519804083,0,1,0.367727466975339
13,12,1,1,2.50660895800684,1,4,0.446345014963299
13,12,2,1,2.47634148702491,0,3,0.667015440994874
13,12,2,2,2.33908039901871,1,2,0.728883958072402
13,12,1,1,2.29096446209587,1,3,0.300106161972508
13,12,1,1,2.54080837604124,1,3,0.970857657957822
13,13,2,2,2.44172273902223,1,4,0.508598863030784
13,13,1,2,2.35908606706653,0,1,0.241695801960304
13,13,1,2,2.55884301604237,0,2,0.399248671950772
13,13,1,2,2.74260159698315,0,2,0.391191376955248
13,13,1,2,2.59266212093644,0,2,0.340726452996023
13,13,1,1,2.7926305399742,1,3,0.372501116013154
13,13,2,2,2.35436200199183,1,2,0.32796597504057
13,13,2,1,2.64286616607569,0,2,0.223676788969897
13,13,2,1,2.52111446391791,0,2,0.372758812038228
13,13,2,2,2.70910339802504,1,3,0.325968567980453
13,13,2,2,2.70984921697527,1,3,0.42489696200937
13,13,2,2,2.35949658800382,1,4,0.843302754918113
13,13,1,1,2.35870226903353,1,4,0.65344821405597
13,13,2,2,2.42547110491432,1,3,1.1912656170316
13,13,1,1,2.97201341995969,1,3,0.559253984014504
13,13,1,1,2.94269579602405,1,2,0.580115481978282
13,13,2,2,2.32273856201209,1,4,0.504865557071753
