subject,run,stim_side,response,RT,accuracy,confidence,RT_conf
14,1,1,1,3.17392585705966,1,3,1.04285918304231
14,1,1,1,2.76109521801118,1,2,0.647114571998827
14,1,1,1,2.72326253599022,1,1,0.841362945968285
14,1,2,2,2.64162470900919,1,2,1.10841011290904
14,1,2,2,2.67402723897249,1,2,0.855637839064002
14,1,2,2,2.55696028703824,1,3,0.718801673967391
14,1,2,2,2.9571119119646,1,1,0.400358873070218
14,1,1,2,2.79028870700859,0,2,0.58906439691782
14,1,1,1,2.60812139394693,1,3,0.686729352921247
14,2,2,2,2.7913335779449,1,2,0.673164280946366
14,2,1,1,3.12376124004368,1,4,0.307476112968288
14,2,1,2,2.77357618196402,0,2,0.554949586978182
14,2,2,2,2.7736243000254,1,3,0.563584918039851
14,2,2,2,2.55685689591337,1,3,0.607973156031221
14,2,1,1,2.57312962703872,1,2,0.504230307065882
14,2,2,2,2.80702859396115,1,1,1.05404888896737
14,2,1,1,3.94063076900784,1,2,0.380830100970343
14,2,2,2,2.77247651398648,1,3,0.783792211906984
14,2,2,1,2.77308327401988,0,2,0.477048243046738
14,3,2,2,2.82495941594243,1,2,0.703436477924697
14,3,1,1,3.07367620198056,1,2,0.645045332959853
14,3,2,1,4.67470257298555,0,2,0.535378832020797
14,3,1,1,2.60697031696327,1,3,0.28934554499574
14,3,1,1,2.73941868194379,1,2,0.685916541027837
14,3,2,2,2.67288438393734,1,2,0.367474674014375
14,3,2,2,2.89002570393495,1,3,0.899453787948005
14,3,2,1,3.15694684488699,0,1,1.57226429297589
14,3,2,2,2.47274688095786,1,4,0.43184068496339
14,3,1,1,2.72288131993264,1,1,0.48838270502165
14,3,2,2,2.50882308196742,1,2,0.444516958901659
14,4,2,2,2.6414076150395,1,1,0.858099745004438
14,4,2,2,2.90674876503181,1,2,0.280559865990654
14,4,2,2,2.53977974690497,1,4,0.522191908094101
14,4,2,2,2.52374624600634,1,3,0.328461242956109
14,4,1,1,2.65698001603596,1,3,0.655710350023583
14,4,1,1,3.49032372795045,1,2,0.497297956026159
14,4,1,1,2.55615978303831,1,1,0.41964905092027
14,4,1,2,2.63955675601028,0,1,0.419161157100461
14,4,1,1,2.67327151296195,1,2,0.257524590939283
14,4,1,1,2.4733324899571,1,3,0.334571029990911
14,4,2,1,2.7592688909499,0,2,0.215966096962802
14,4,1,1,2.50883797602728,1,2,0.524648198974319
14,5,2,2,2.52391587896273,1,3,0.531817816081457
14,5,1,1,2.75886853295378,1,3,0.767951685003936
14,5,1,1,2.72393124096561,1,2,0.380211493931711
14,5,1,1,2.72301872295793,1,2,0.351470948080532
14,5,1,1,2.62316593900323,1,3,0.245245453086682
14,5,2,2,2.9569063289091,1,1,0.732230358989909
14,5,2,1,3.0399636819493,0,1,0.347649628994986
14,5,1,2,2.83932982792612,0,2,0.268755145021714
14,5,2,2,2.37297501997091,1,4,0.321830873028375
14,5,2,1,2.58986885088962,0,2,0.275203456985764
14,5,2,2,2.92318009294104,1,1,0.595680354977958
14,5,2,2,3.15675021195784,1,1,0.281842536991462
14,5,1,1,2.27301805303432,1,3,0.627734823036008
14,6,1,1,2.69137511099689,1,2,1.03505476308055
14,6,2,1,2.63982460205443,0,2,0.462657692958601
14,6,1,2,2.67356619494967,0,2,0.464300257968716
14,6,1,1,2.30669199605472,1,3,0.335603717016056
14,6,2,1,2.65606293501332,0,2,0.294902073103003
14,6,2,1,2.95643986389041,0,1,0.550492933019996
14,6,1,1,2.63991428294685,1,2,0.237783199059777
14,6,1,1,2.55624955799431,1,2,0.330481842975132
14,6,1,1,2.53960969403852,1,3,0.80948591302149
14,6,1,2,3.20943296398036,0,1,0.386880689999089
14,6,2,2,2.48962274799123,1,4,0.360656192991883
14,6,1,1,2.45864584401716,1,3,0.333841943996958
14,6,2,1,2.89024599001277,0,1,0.209394376026466
14,7,1,1,3.49273785506375,1,1,0.859393390943296
14,7,1,2,3.99086338107008,0,1,0.262824633042328
14,7,2,2,2.8381312499987,1,1,0.320027975947596
14,7,2,1,3.17353875306435,0,1,0.47034382505808
14,7,1,1,2.408084438066,1,3,0.765393443056382
14,7,1,1,2.60664594604168,1,4,0.398689038003795
14,7,1,1,2.63952837395482,1,2,0.222158977994695
14,7,2,1,2.85830827697646,0,2,0.373147076927125
14,7,1,1,2.55722664005589,1,3,0.379715037997812
14,7,1,2,2.76228132506367,0,2,0.508977000950836
14,7,2,2,2.59108738298528,1,2,0.876202772022225
14,7,1,2,3.32325352192856,0,1,0.262864639982581
14,7,2,2,2.47435254591983,1,2,0.250290542957373
14,8,1,1,2.6749687679112,1,2,0.661620371975005
14,8,2,2,2.51307923707645,1,4,0.391523967031389
14,8,1,1,2.39175056503154,1,4,0.478360089007765
14,8,1,1,2.64127182704397,1,1,0.652166769956239
14,8,1,2,2.77350756595843,0,1,0.189116893918253
14,8,2,1,2.50865523295943,0,2,0.301691955886781
14,8,1,1,2.35764814994764,1,3,0.339884646004066
14,8,1,1,2.55848723603413,1,2,0.46342513198033
14,8,1,2,2.44098373397719,0,2,0.3484629499726
14,8,2,2,2.4243677649647,1,2,0.282530302996747
14,8,1,1,4.10688873298932,1,1,0.45698702998925
14,8,2,1,2.58962877211161,0,2,0.294876507017761
14,9,2,2,2.6259674730245,1,3,0.583904312923551
14,9,1,1,2.82114291493781,1,1,0.313866929034702
14,9,1,1,2.62314925401006,1,2,0.294848521007225
14,9,1,1,2.47528732498176,1,3,0.293947192025371
14,9,2,1,2.32444341504015,0,1,0.705874089035206
14,9,2,1,2.37322715402115,0,2,0.218399099889211
14,9,2,2,2.42279940401204,1,2,0.534445454017259
14,9,1,1,2.55677876807749,1,2,0.237295225029811
14,9,1,1,2.37634656997398,1,3,0.32024888403248
14,9,1,2,3.223729260033,0,2,0.178443639073521
14,9,2,2,2.28830671589822,1,3,0.486022179946303
14,9,2,2,2.40845817595255,1,4,0.588576204027049
14,10,1,2,2.72636567696463,0,2,0.34746688301675
14,10,1,2,2.67511314991862,0,1,0.302160345949233
14,10,1,1,2.7757286169799,1,3,0.456588633009233
14,10,1,1,2.43989756400697,1,3,0.447898411075585
14,10,2,1,2.8568864519475,0,2,0.543855575961061
14,10,1,1,2.57489933900069,1,2,0.485304251895286
14,10,1,1,3.12330553797074,1,3,0.361871010973118
14,10,1,1,2.55958841298707,1,3,0.354296918027103
14,10,1,1,2.6253862970043,1,2,0.529018281027675
14,10,2,1,3.02457654604223,0,1,0.236920233001001
14,10,2,2,2.9585630770307,1,2,0.361802704981528
14,10,2,1,2.59086789994035,0,1,0.543035740964115
14,11,2,1,2.52218397299293,0,1,0.797508739051409
14,11,2,2,2.34195208898745,1,2,0.308229473885149
14,11,1,1,2.4407015920151,1,3,0.364854812971316
14,11,1,1,2.44319410796743,1,2,0.704750468023121
14,11,2,2,2.4575532679446,1,2,0.426237518899143
14,11,1,1,2.593466212973,1,1,0.165041227010079
14,11,2,2,2.30798583198339,1,2,0.407737842993811
14,11,1,1,2.34134166699369,1,3,0.142720413976349
14,11,1,1,2.30912859900855,1,2,0.287663066061214
14,11,1,1,2.40800347691402,1,1,0.629821532987989
14,11,1,1,2.25642942590639,1,1,0.32745222595986
14,11,2,2,2.80835130496416,1,2,0.221949648926966
14,12,1,1,2.309196138056,1,4,0.574065488995984
14,12,2,1,2.90859898994677,0,2,0.260845705051906
14,12,2,1,2.74247660499532,0,2,0.301756517030299
14,12,1,1,2.57536835002247,1,2,0.184207653044723
14,12,1,1,2.25567680899985,1,3,0.432686490938067
14,12,1,2,2.87229190208018,0,1,0.243386145099066
14,12,2,2,2.39245564397424,1,3,0.345937297097407
14,12,1,1,2.28842762799468,1,3,0.385535462060943
14,12,2,2,2.38870022899937,1,2,0.515033938921988
14,12,2,2,2.30574806896038,1,4,0.735793602070771
14,12,2,1,2.65919108001981,0,1,0.312575342017226
14,12,1,1,2.84216772695072,1,2,0.314168476965278
14,13,1,1,2.47706184303388,1,2,0.393491216003895
14,13,1,1,2.47254753496964,1,2,0.649035505019128
14,13,2,2,2.40765833493788,1,2,0.321568870102055
14,13,1,1,2.3254210180603,1,2,0.5266034550732
14,13,2,2,2.30463712895289,1,3,0.296610084013082
14,13,2,2,2.59259201900568,1,3,0.524594011018053
14,13,1,2,3.189524410991,0,1,0.262934546917677
14,13,1,1,2.62551953899674,1,1,0.234366544988006
14,13,1,1,2.79106605099514,1,2,0.0620893619488925
14,13,1,1,2.39330803893972,1,2,0.84500589594245
14,13,1,2,3.14178801106755,0,1,0.17952691402752
14,13,1,2,2.30899760394823,0,2,0.247623326955363
14,14,2,2,2.67622164008208,1,2,0.302800128003582
14,14,2,2,2.35559371800628,1,2,0.315068391035311
14,14,1,1,2.87159963895101,1,1,0.20419193408452
14,14,1,1,2.34075621003285,1,2,0.464458707952872
14,14,2,1,2.64204620698001,0,2,0.205103891901672
14,14,1,2,2.39215955103282,0,3,0.34165827895049
14,14,2,2,2.35533451801166,1,4,0.309171631932259
14,14,1,1,2.40953473199625,1,3,0.217567573068663
14,14,2,1,2.64171903196257,0,1,0.274953068001196
14,14,1,1,2.25976726703811,1,3,0.282316341996193
14,14,2,2,2.37448273308109,1,2,0.391342435963452
14,14,2,2,2.4381609269185,1,2,0.369063043966889
14,15,2,2,2.51050133397803,1,3,0.362095911055803
14,15,1,1,3.0557883370202,1,1,0.289177118102089
14,15,1,1,2.52570985502098,1,2,0.263414313900284
14,15,1,1,2.525902292924,1,2,0.457835815963335
14,15,1,1,2.30824947403744,1,3,0.32728925102856
14,15,2,2,2.57507907203399,1,4,0.395290699088946
14,15,1,1,2.39263773197308,1,3,0.85619061999023
14,15,2,2,2.2921651880024,1,3,0.35241344908718
14,15,1,1,2.3261766450014,1,3,0.360287128016353
14,15,2,1,2.45878138602711,0,2,0.450872655957937
14,15,1,2,2.90532239596359,0,1,0.283846287988126
14,15,1,2,2.70821416703984,0,1,0.268785657011904
14,16,2,2,2.7655928239692,1,1,0.415066804038361
14,16,1,1,2.40572320402134,1,2,0.248550192103721
14,16,2,1,2.30755203601439,0,2,0.268638800014742
14,16,1,1,2.39211047394201,1,3,0.561595643055625
14,16,1,2,2.78923996898811,0,3,0.283003613934852
14,16,2,2,2.32489329797681,1,2,0.755218367907219
14,16,1,1,4.33977771899663,1,2,0.241825046949089
14,16,2,2,2.35807893401943,1,3,0.438931684941053
14,16,1,1,2.35929008701351,1,2,0.566498238942586
14,16,1,1,2.37141006998718,1,3,1.16093276301399
14,16,1,2,2.5222232650267,0,2,0.484552980051376
14,16,1,1,2.42466709192377,1,2,0.28353788505774
