subject,run,stim_side,response,RT,accuracy,confidence,RT_conf
18,1,2,2,2.85668567381799,1,3,1.62425920297392
18,1,1,2,2.67485973984003,0,2,0.708701977040619
18,1,2,1,2.57433229405433,0,3,0.686905290000141
18,1,2,2,2.80643648793921,1,2,1.01234168815427
18,1,1,2,3.40716507192701,0,2,0.588561930926517
18,1,1,1,2.65586428716779,1,2,1.21951366891153
18,1,2,2,3.72387583297677,1,2,0.815812441054732
18,1,2,1,3.15714725083672,0,2,0.84570917696692
18,2,1,2,2.67487883917056,0,3,0.869300621096045
18,2,2,1,2.52362314797938,0,2,0.58933771494776
18,2,1,1,2.4564702429343,1,2,0.471050816122442
18,2,1,1,2.35684941103682,1,2,0.530433499021456
18,2,2,2,2.27176769217476,1,3,0.355385202914476
18,2,1,2,2.35608530207537,0,2,0.543280693003908
18,2,2,2,2.32302784710191,1,3,0.594984232215211
18,3,2,1,2.72523332899436,0,2,0.842576591065153
18,3,2,1,2.68998089898378,0,2,0.669755649054423
18,3,1,1,2.67345594312064,1,2,0.837048599962145
18,3,2,2,2.50837130704895,1,3,0.85078072710894
18,3,1,1,2.17294114013202,1,2,1.79774370207451
18,3,1,2,2.30648467200808,0,2,0.699133835965768
18,4,1,1,2.374024837045,1,3,0.517238701926544
18,4,2,1,2.7563058140222,0,3,0.517885433975607
18,4,1,1,2.33980031311512,1,3,0.588390710996464
18,4,2,2,3.03898037201725,1,2,0.39652006002143
18,4,2,1,2.42267673811875,0,2,0.673180317971855
18,5,1,1,2.5901524219662,1,3,0.782671401044354
18,5,2,1,2.52152426890098,0,3,0.405529347015545
18,5,2,2,2.42373213684186,1,3,0.331435129977763
18,5,1,2,2.27318812301382,0,3,0.24484670907259
18,6,2,2,2.42519796197303,1,3,0.607037655077875
18,6,1,2,2.78927775286138,0,3,0.926777445012704
18,6,1,1,2.37272102711722,1,3,0.3764752689749
18,7,1,1,2.70850703702308,1,2,0.714755294844508
18,7,2,2,2.32205682201311,1,3,0.616714523173869
18,8,2,2,2.36034824582748,1,3,0.777599155902863
18,8,1,1,2.3235186568927,1,3,0.485344807850197
18,9,1,1,3.09108108491637,1,2,0.784569778945297
18,9,2,1,3.32311439584009,0,2,1.04736539116129
18,9,2,2,2.60596084408462,1,3,0.445389924105257
18,10,1,1,2.3241746998392,1,3,0.55855277297087
18,10,1,1,2.35641486104578,1,3,0.415965361054987
18,10,1,1,2.33984103007242,1,3,0.277464115992188
18,11,2,2,2.67374249408022,1,3,0.707508672960103
18,11,1,1,2.70630336902104,1,2,0.635091908974573
18,11,2,2,2.76035220408812,1,2,0.648427179083228
18,11,1,1,2.02049003494903,1,2,0.950429238146171
18,12,2,1,2.62205685302615,0,2,0.743231658823788
18,12,2,1,2.02041975688189,0,2,4.95449132518843
18,12,1,1,2.77351767802611,1,2,0.896148222032934
18,12,1,1,3.27419880917296,1,3,0.484000463038683
18,12,1,1,2.58951393491589,1,3,0.289930728031322
18,13,2,2,3.59413814009167,1,3,0.920473763020709
18,13,2,2,2.25813705497421,1,3,0.662184703862295
18,13,2,2,2.57523059402592,1,2,0.562584460014477
18,13,1,1,2.40674965898506,1,3,0.407552706077695
18,13,2,2,2.55790085298941,1,3,0.477480169152841
18,14,1,1,3.20831800904125,1,2,0.919711547205225
18,14,2,2,3.25652049388736,1,2,0.661924049956724
18,14,2,1,2.60469517996535,0,3,0.475120950024575
18,14,1,1,2.85833703796379,1,2,0.585151012055576
18,14,2,2,2.3066053239163,1,3,0.400595751125365
18,15,1,1,2.80922803096473,1,2,0.519002730958164
18,15,2,1,3.01016535121016,0,2,0.544528992846608
18,15,1,1,2.3720263550058,1,2,0.554084812989458
18,15,2,1,2.65801704395562,0,2,0.567604526877403
18,15,2,2,2.52322284504771,1,3,0.483826932031661
18,15,1,1,2.70779007207602,1,3,0.77646146598272
18,16,1,2,3.12686281115748,0,2,1.04949150187895
18,16,1,2,2.75987482187338,0,2,1.44262601714581
18,16,1,1,2.47332628187723,1,3,0.315143314888701
18,16,2,2,2.37481148191728,1,3,0.61416089697741
18,16,2,2,2.52412250009365,1,3,0.478544253855944
18,16,1,1,2.38808432593942,1,3,0.330348151968792
18,17,1,1,3.16035623499192,1,2,0.418249070877209
18,17,2,2,2.8900026679039,1,2,0.993773035006598
18,17,2,2,2.70631900802255,1,2,0.471471384866163
18,17,2,2,2.27226691506803,1,3,0.536233111051843
18,17,1,1,2.52429418684915,1,2,0.452712836209685
18,17,1,1,2.44081011903472,1,3,0.495279363822192
18,18,2,2,2.40802215784788,1,3,0.471475165104493
18,18,2,2,4.02321220585145,1,2,0.582829016027972
18,18,2,2,3.75794085604139,1,2,0.276487745111808
18,18,1,1,2.49248053785414,1,3,0.295581433922052
18,18,2,2,2.4055863970425,1,3,0.306289587169886
18,18,2,2,2.29231011704542,1,3,0.255423487862572
18,18,2,2,2.37521638721228,1,3,0.56819532578811
18,19,2,1,2.7610150880646,0,2,0.410471017938107
18,19,2,2,2.52242514817044,1,2,0.445245295064524
18,19,2,2,2.3928626079578,1,2,0.614145952975377
18,19,2,2,2.30759738897905,1,2,1.01574549893849
18,19,1,2,2.35773923597299,0,2,0.556630760198459
18,19,2,2,2.39296493399888,1,1,0.482315254863352
18,19,1,2,2.90840930794366,0,1,0.372971956850961
18,19,2,2,2.42426781007089,1,3,1.03895630594343
18,20,1,1,2.35989659302868,1,2,0.6256826040335
18,20,1,1,2.49209182313643,1,2,0.522829515160993
18,20,1,2,2.72579842805862,0,2,0.660302934935316
18,20,1,1,2.45452973502688,1,2,0.673121087020263
18,20,1,1,3.07462159288116,1,3,0.548826738959178
18,20,2,2,2.95898340991698,1,2,0.642648295965046
18,20,1,1,2.54246009001508,1,2,0.866141279228032
18,20,2,2,3.32456602086313,1,2,0.698953890008852
18,21,2,2,3.06028256192803,1,2,0.593651445116848
18,21,1,2,2.55936239683069,0,2,0.63856814801693
18,21,1,2,2.99246986699291,0,2,0.341559774009511
18,21,2,2,2.62618393101729,1,2,0.302706117043272
18,21,1,1,3.20635140594095,1,3,0.468061262974516
18,21,2,1,2.44126914697699,0,2,0.322833599988371
18,21,2,2,2.42297237087041,1,2,0.705928938928992
18,21,2,2,2.71025614696555,1,2,0.307709821965545
18,22,2,1,2.64314226503484,0,2,0.287094132043421
18,22,1,2,2.34036224498414,0,2,0.387482465011999
18,22,2,2,3.27672296692617,1,2,0.234180828090757
18,22,1,2,2.6596342951525,0,2,0.281029632082209
18,22,2,2,2.59430385194719,1,2,1.07085605384782
18,22,1,1,2.43813589308411,1,2,0.302741440013051
18,22,2,2,2.51084448909387,1,2,0.302231095964089
18,22,2,2,2.47232432896271,1,2,0.311464722966775
18,23,1,1,2.6242480610963,1,2,0.667109432863072
18,23,2,1,3.10494588594884,0,2,0.277134304866195
18,23,1,1,2.70863473089412,1,3,0.302041650982574
18,23,1,1,2.30536106601357,1,3,0.210649884073064
18,23,1,1,2.95924541214481,1,2,0.187438752036542
18,23,1,1,2.94053076510318,1,3,0.293955881847069
18,23,1,1,2.5265475299675,1,2,0.248198743909597
18,23,1,1,2.02045943681151,1,2,0.225274470169097
18,24,1,1,3.04321973887272,1,3,0.567567167105153
18,24,2,2,2.87674421910197,1,2,0.229158773086965
18,24,2,2,2.32678400492296,1,3,0.300455363932997
18,24,1,1,2.64256519405171,1,2,0.22711488394998
18,24,1,2,2.29261043202132,0,2,0.282718637958169
18,24,2,2,2.32224803906865,1,3,0.380511705996469
18,24,2,1,3.58973342599347,0,2,0.335145230172202
18,24,1,2,2.64175756694749,0,2,0.233839329099283
18,25,2,2,2.59372754185461,1,3,0.320823289919645
18,25,2,2,2.69126770412549,1,3,0.309790710918605
18,25,1,1,2.51065219403245,1,2,0.207192112924531
18,25,2,2,2.34298754390329,1,2,0.983280885964632
18,25,1,2,2.68970139487647,0,2,0.261535095050931
18,25,1,1,2.40486112912185,1,2,0.239953173091635
18,25,2,2,2.32193876290694,1,3,0.300285557983443
18,25,2,1,2.82208691909909,0,2,0.354925275081769
18,26,1,1,2.84376501105726,1,2,0.262076467042789
18,26,1,1,2.38950172695331,1,2,0.580998247023672
18,26,2,2,2.32664177194238,1,3,0.248029181035236
18,26,1,1,2.69293295498937,1,2,0.213629530044273
18,26,1,1,3.42557453899644,1,2,0.268599560949951
18,26,2,2,2.75627217488363,1,3,0.286308420123532
18,26,1,1,3.02236828999594,1,3,0.568738817935809
18,26,1,1,2.38892508693971,1,3,0.270450321957469
18,27,1,1,2.85950371599756,1,2,0.25266150594689
18,27,2,2,2.32319984398782,1,3,0.358969955006614
18,27,2,2,2.3094625978265,1,2,0.399683733936399
18,27,1,1,3.3741388800554,1,3,0.477680284064263
18,27,2,2,2.59293429204263,1,3,0.398885750211775
18,27,1,1,2.44246810884215,1,3,0.374457499943674
18,27,2,1,2.51108102686703,0,2,0.321722208987921
18,27,2,1,2.75782344513573,0,2,0.316414101049304
18,27,2,1,2.72639051615261,0,2,0.306094848085195
18,28,2,2,2.60954862111248,1,2,0.268999685067683
18,28,1,1,3.274408133002,1,3,0.335275026038289
18,28,1,2,2.45926629309542,0,2,0.3113497949671
18,28,1,2,2.44264047895558,0,2,0.27037417399697
18,28,1,1,2.75650115706958,1,2,0.277308848919347
18,28,1,1,3.1261410410516,1,1,0.322963226120919
18,28,1,1,3.36064608790912,1,1,0.494210779899731
18,28,2,2,2.95971644995734,1,3,0.272893379908055
18,28,2,1,2.87714642402716,0,2,0.244798386003822
18,28,1,1,3.44411676889285,1,1,0.309116099961102
18,29,2,2,2.7102296021767,1,2,0.268268396845087
18,29,1,1,3.15831913519651,1,2,0.282274535857141
18,29,1,2,2.89135808404535,0,2,0.283550925087184
18,29,2,1,2.67593813897111,0,2,0.295785075984895
18,29,1,1,2.60600345791318,1,2,0.384691362036392
18,29,1,1,2.94217917788774,1,1,0.296885075047612
18,29,1,1,3.07661923905835,1,2,0.374955991981551
18,29,1,2,3.190191116184,0,2,0.249204015126452
18,29,1,2,2.54319644509815,0,2,0.221868211170658
18,29,2,2,2.39226451003924,1,3,0.312955491943285
