subject,run,stim_side,response,RT,accuracy,confidence,RT_conf
24,1,2,2,0.499240237986669,1,2,1.32960056397133
24,1,1,1,0.626828989945352,1,3,0.187552227871493
24,1,1,1,0.518266570055857,1,3,0.157389749074355
24,1,1,1,0.892507290933281,1,1,0.215768625028431
24,1,1,2,1.02599259186536,0,3,0.170408047037199
24,1,1,2,0.727216819068417,0,3,0.198239345103502
24,1,1,2,0.528964405879378,0,3,0.222138139884919
24,1,2,2,0.897073019994423,1,2,0.138877783901989
24,1,1,1,0.619698439957574,1,4,0.325436554849148
24,1,1,1,1.5710065360181,1,1,0.203277067979798
24,1,1,1,0.455663783010095,1,3,0.172540219035
24,1,1,2,0.505808796966448,0,4,0.170962043106556
24,1,2,2,0.460512316087261,1,4,0.126399660017341
24,1,2,2,0.789378511952236,1,4,0.584084566915408
24,1,2,2,0.382477098144591,1,4,0.131578850094229
24,1,1,2,0.441181055037305,0,4,0.144906854024157
24,1,1,2,0.476870961021632,0,4,0.541238056961447
24,1,1,2,1.99431290104985,0,3,0.125069482019171
24,1,1,1,0.540921960957348,1,3,0.0739975839387625
24,1,1,1,0.535972725134343,1,3,0.0859336480498314
24,1,2,2,0.456600853940472,1,3,0.0805043659638613
24,1,2,2,0.403066154103726,1,3,0.125853362027556
24,1,1,1,0.955719470977783,1,2,0.150647756876424
24,1,2,2,1.03427184093744,1,1,0.0796555129345506
24,1,2,2,0.61398216499947,1,2,0.274115132167935
24,1,1,2,0.407728681107983,0,2,0.273197141941637
24,1,1,2,0.911192431114614,0,3,0.120088082039729
24,1,2,2,0.658903978066519,1,3,0.11837598704733
24,1,1,1,0.920528892893344,1,2,0.412269349908456
24,1,1,2,1.06274964101613,0,1,0.0811745962128043
24,2,2,1,1.06569030298851,0,2,0.343092803144827
24,2,1,2,0.589698266005144,0,2,0.0736148071009666
24,2,2,2,0.74403724912554,1,2,0.0672242599539459
24,2,1,1,0.474401473067701,1,2,0.164587459992617
24,2,1,1,1.49259882210754,1,1,0.221115054097027
24,2,2,2,0.480555540882051,1,4,0.156209518900141
24,2,2,2,0.563585617113858,1,4,0.03460199595429
24,2,1,2,0.762001454131678,0,4,0.0276223891414702
24,2,1,1,0.835666056023911,1,2,0.216711617074907
24,2,1,2,1.50525378296152,0,1,0.669705932959914
24,2,2,2,0.457586284959689,1,3,1.23539855401032
24,2,2,2,0.541563843842596,1,4,0.100068498868495
24,2,2,2,0.625272704986855,1,4,0.150915418984368
24,2,2,2,0.387913425918669,1,4,0.118830336956307
24,2,2,2,0.462485162075609,1,4,0.105558056151494
24,2,1,2,0.719718427862972,0,3,0.395841181045398
24,2,1,2,0.454777929000556,0,4,0.260844588046893
24,2,2,2,0.459117106860504,1,4,0.0788584549445659
24,2,2,2,0.4888033750467,1,4,0.132394435815513
24,2,2,2,0.373728608945385,1,4,0.143664377043024
24,2,1,2,1.72950174496509,0,1,0.140084520913661
24,2,2,2,0.324337363010272,1,4,0.112318067112938
24,2,2,2,1.08423164789565,1,4,0.221289543900639
24,2,2,2,0.52246744884178,1,4,0.0863110269419849
24,2,1,2,0.469234221149236,0,4,0.0799627900123596
24,2,1,2,0.484048539074138,0,4,0.0607698981184512
24,2,2,2,0.465364826144651,1,4,0.824882938992232
24,2,2,2,0.460589545080438,1,4,1.02069545094855
24,2,1,2,1.99805110995658,0,1,0.0993302180431783
24,2,1,1,0.647818197030574,1,4,0.214979740092531
24,3,2,2,0.292762033175677,1,4,0.137897175038233
24,3,1,1,1.21611628890969,1,1,0.0874816910363734
24,3,2,2,0.52026264090091,1,4,0.0989691410213709
24,3,1,2,0.448208974907175,0,4,0.637418380007148
24,3,1,2,0.369068189989775,0,4,0.0615924519952387
24,3,2,2,0.373597644967958,1,4,0.0653135559987277
24,3,1,1,1.4578460289631,1,2,0.0744863071013242
24,3,2,2,0.335149757098407,1,4,0.449908722890541
24,3,1,2,0.869910680921748,0,2,0.665603372035548
24,3,1,2,1.36366687109694,0,1,0.226257227128372
24,3,2,2,0.403977192938328,1,1,0.093910323921591
24,3,2,2,0.609607290010899,1,4,0.0548507578205317
24,3,1,1,1.0047198748216,1,3,0.0353555448818952
24,3,1,1,3.72253379994072,1,2,0.441951312124729
24,3,1,2,0.484301130054519,0,3,0.605878613889217
24,3,1,1,1.011817476945,1,2,0.113100168993697
24,3,2,2,0.540067502995953,1,4,0.0996303590945899
24,3,1,2,0.429752822965384,0,4,0.0804411540739238
24,3,1,1,1.7434201289434,1,2,0.288637852994725
24,3,1,2,0.629088399931788,0,3,0.273254815023392
24,3,1,2,1.53171625500545,0,1,0.286651110043749
24,3,1,1,1.43337350105867,1,3,0.242092526052147
24,3,2,2,1.19514619885013,1,4,0.997407953022048
24,3,1,1,1.66628782497719,1,3,0.170551728922874
24,3,1,2,0.672298700083047,0,3,0.39046821789816
24,3,2,2,0.963354132836685,1,4,0.288680230034515
24,3,2,2,0.46864908398129,1,4,0.151898761978373
24,3,2,2,1.31516516301781,1,4,0.0612427219748497
24,3,1,1,0.436045470880345,1,4,0.407501788111404
24,3,1,1,1.51232790504582,1,1,0.151131227845326
24,4,2,2,0.477356967050582,1,4,0.378046958940104
24,4,1,1,0.804152701981366,1,3,0.185604623984545
24,4,1,1,0.457331612939015,1,3,0.207193900831044
24,4,1,1,1.21303044492379,1,3,0.119504480157048
24,4,2,1,1.4860720471479,0,1,0.229266470996663
24,4,2,1,1.48163353698328,0,1,0.248509869910777
24,4,2,2,0.432520730886608,1,3,0.229261117056012
24,4,2,2,0.368442183127627,1,4,0.190465908963233
24,4,1,1,2.04417571704835,1,2,0.145181464031339
24,4,2,2,0.441797628998756,1,3,0.0933907898142934
24,4,2,2,0.390721925999969,1,4,0.125979094998911
24,4,1,2,0.583189585944638,0,3,0.373257284983993
24,4,1,1,1.03329644398764,1,3,0.0414479989558458
24,4,2,2,0.512826393125579,1,4,0.236642027040944
24,4,1,1,0.578496475936845,1,4,0.137494002003223
24,4,2,2,1.15150607796386,1,4,0.521955981152132
24,4,1,1,1.74612749088556,1,1,0.149461225839332
24,4,1,1,0.964653750881553,1,1,0.0866783289238811
24,4,2,2,0.377397746779025,1,4,0.104963504010811
24,4,1,1,0.450817557051778,1,4,0.0745493560098112
24,4,2,2,0.658223723992705,1,3,0.202761273831129
24,4,1,1,0.493676900863647,1,2,0.22896714694798
24,4,1,2,0.554925484815612,0,1,0.513243425870314
24,4,1,1,0.73241298715584,1,1,0.0855810160282999
24,4,1,1,0.494331102119759,1,4,0.0805432430934161
24,4,1,1,0.476220754208043,1,4,0.0353474300354719
24,4,2,2,0.498842000029981,1,4,0.0538061340339482
24,4,1,2,0.731631603091955,0,4,0.0684077320620418
24,4,2,1,0.601270098006353,0,4,0.138330309884623
24,4,2,2,0.608360273065045,1,4,0.426217054948211
24,5,2,2,0.703252410050482,1,2,0.901910815853626
24,5,1,2,0.43392981402576,0,3,0.171454743016511
24,5,1,1,0.361142331035808,1,4,0.0998580120503902
24,5,1,2,0.950878696050495,0,4,0.164692861959338
24,5,1,1,0.399964308831841,1,3,0.983722944976762
24,5,2,1,0.462679106974974,0,3,0.189892478054389
24,5,1,1,0.429245212115347,1,4,0.228930008830503
24,5,1,1,0.323861018987373,1,4,0.137762804049999
24,5,2,2,1.01035712403245,1,1,0.0671529620885849
24,5,2,2,0.459491893881932,1,4,0.169929119991139
24,5,2,1,0.810979610076174,0,3,0.125307663111016
24,5,1,1,0.399762662826106,1,3,0.151980370050296
24,5,2,2,0.912309505045414,1,4,0.0995981481391937
24,5,1,1,1.42587752896361,1,3,0.0412467219866812
24,5,1,1,0.632306392071769,1,4,0.0801298629958183
24,5,1,1,1.18913366599008,1,3,0.0654601380228996
24,5,1,1,1.08183009410277,1,4,0.0810731220990419
24,5,1,2,0.987089394126087,0,2,0.190397035097703
24,5,2,1,0.810465917922556,0,2,0.483341973973438
24,5,2,2,0.994141991017386,1,3,0.0856892950832844
24,5,2,2,0.563498068833724,1,4,0.106097837910056
24,5,1,2,0.473815976176411,0,4,0.170730486046523
24,5,2,1,1.8633794230409,0,1,0.170111190993339
24,5,2,2,0.446417577099055,1,3,0.0927221009042114
24,5,1,1,0.73069675010629,1,3,0.151420067064464
24,5,2,1,0.777680823812261,0,3,0.0513589670881629
24,5,1,1,0.53652157005854,1,3,0.0601541730575264
24,5,2,2,0.365025419043377,1,4,0.0929802060127258
24,5,2,1,0.60049822810106,0,1,0.467575998976827
24,5,1,1,1.02022811514325,1,2,0.455143716884777
24,6,2,1,0.97907322505489,0,3,0.214983026962727
24,6,2,1,0.782082448014989,0,2,0.331877617165446
24,6,2,2,0.472504753153771,1,3,0.0407457430846989
24,6,1,2,1.05239889305085,0,2,0.306845785118639
24,6,2,2,0.387761401943862,1,2,0.132715697865933
24,6,1,1,0.528429521946236,1,3,0.0676153649110347
24,6,2,2,0.393123327055946,1,4,0.325514530064538
24,6,2,2,0.980658150045201,1,2,0.138384100049734
24,6,2,2,0.40562518290244,1,4,0.0681237671524286
24,6,1,1,1.04807074693963,1,2,0.105628207093105
24,6,1,1,0.793549160007387,1,2,0.0936124108266085
24,6,2,2,0.44240764901042,1,3,0.0421116838697344
24,6,1,2,0.375402244040743,0,4,0.0669634209480137
24,6,1,2,0.450860449112952,0,4,0.331122542032972
24,6,2,2,0.923558979993686,1,4,0.358686854830012
24,6,1,1,1.17047255299985,1,2,0.0410609690006822
24,6,1,1,1.0810983190313,1,2,0.086772029986605
24,6,2,2,0.424250154057518,1,3,0.0608358471654356
24,6,1,1,0.651983220130205,1,2,0.066688486142084
24,6,1,1,0.886073771864176,1,2,0.0548596139997244
24,6,2,2,0.435263935942203,1,3,0.0538531420752406
24,6,2,1,0.597652876982465,0,2,0.0801416449248791
24,6,1,1,0.494048699969426,1,3,0.242254415061325
24,6,1,1,0.573875075904652,1,4,0.405162913957611
24,6,2,2,0.392868622904643,1,4,0.0610424811020494
24,6,2,1,0.33738299482502,0,4,0.0409603700973094
24,6,2,2,0.413127965060994,1,4,0.0355054470710456
24,6,2,2,0.385808378923684,1,4,0.386162254028022
24,6,1,1,0.394722615834326,1,4,0.404451444046572
24,6,1,1,0.359504457097501,1,4,0.189809540985152
