subject,run,stim_side,response,RT,accuracy,confidence,RT_conf
26,1,1,1,2.30796261015348,1,2,1.78282297798432
26,1,1,1,2.45776868495159,1,4,0.370413758093491
26,1,2,1,2.78996182512492,0,2,0.411813576007262
26,1,1,2,2.84153397707269,0,2,0.27949127391912
26,1,1,1,2.98957904800773,1,2,0.318801183020696
26,1,1,2,3.4240863698069,0,2,0.256834027124569
26,1,1,1,3.02320948499255,1,1,0.298927112016827
26,1,2,2,3.55763888498768,1,1,0.243813276989385
26,1,2,2,2.49015385517851,1,4,0.281931797042489
26,1,1,2,2.80689728888683,0,3,0.244468448217958
26,1,1,1,2.47338333213702,1,4,0.281889474019408
26,2,2,2,2.52469189302064,1,2,1.65839272295125
26,2,2,2,3.29065760388039,1,2,0.405083423946053
26,2,2,2,2.54013752588071,1,3,0.387937224004418
26,2,2,1,3.27386410790496,0,2,0.710436088964343
26,2,1,2,2.7402528070379,0,2,0.308747325092554
26,2,1,1,2.38973277318291,1,4,0.457755753071979
26,2,2,2,3.15682970709167,1,2,0.294530709041283
26,2,1,1,2.62334382510744,1,4,0.311153415124863
26,2,2,1,3.09045188082382,0,2,0.313379167113453
26,2,1,1,2.67331593390554,1,2,0.346073867985979
26,2,1,1,2.5896551781334,1,2,0.269363472005352
26,3,1,2,2.79082498396747,0,2,1.39711349201389
26,3,2,1,2.38972206693143,0,2,0.409490304999053
26,3,1,2,2.48969516600482,0,2,0.343627962050959
26,3,1,1,3.65759699395858,1,2,0.360330335097387
26,3,1,1,2.74012429406866,1,2,0.397187547991052
26,3,2,2,2.99043703684583,1,3,0.392514033941552
26,3,2,2,3.70664839399979,1,2,0.294950350886211
26,3,1,2,2.63933000201359,0,1,0.262367754010484
26,3,1,1,2.90640526404604,1,1,0.50811863783747
26,3,2,2,2.33944660285488,1,4,0.465352348983288
26,3,2,2,2.80636819079518,1,4,0.387135619996116
26,4,2,1,2.75902547989972,0,2,0.349683180917054
26,4,2,2,2.42327278014272,1,4,0.360588510986418
26,4,2,2,3.10672140889801,1,2,0.321538130985573
26,4,1,1,2.48957837396301,1,4,0.30760902306065
26,4,1,2,2.70673798606731,0,1,0.281682501081377
26,4,1,1,2.73992197215557,1,3,0.318822159897536
26,4,2,1,2.80660425708629,0,2,0.471377585083246
26,4,2,2,3.04093146999367,1,4,0.448659528046846
26,4,1,2,2.60615486185998,0,3,1.38680936582386
26,4,1,1,3.3401245160494,1,1,0.267186320153996
26,4,1,1,3.07335042394698,1,2,0.325369434896857
26,5,2,1,2.55763077898882,0,1,0.351189360022545
26,5,1,1,2.47281864401884,1,2,0.34001611196436
26,5,2,2,2.59036067593843,1,3,0.318606565939263
26,5,2,1,3.25688699400052,0,1,0.292566193034872
26,5,2,1,2.67139854817651,0,1,0.237070378148928
26,5,2,2,2.55672770692036,1,3,0.314680107869208
26,5,2,2,3.05657848296687,1,1,0.229900293983519
26,5,1,2,3.08847785904072,0,1,0.241991363931447
26,5,1,2,2.70643781218678,0,1,0.556909786071628
26,5,2,2,2.32264832919464,1,4,0.392116197152063
26,5,1,2,2.70665300101973,0,1,0.302858079783618
26,6,1,2,2.67512378096581,0,1,0.294780151220039
26,6,2,2,2.68974331999198,1,4,0.436331080039963
26,6,1,2,2.85734807304107,0,2,0.275489181047305
26,6,1,1,3.0067298321519,1,2,0.378684191964567
26,6,1,1,2.38957902300172,1,4,0.32099159900099
26,6,2,1,2.48965513100848,0,3,0.599979568039998
26,6,1,1,2.58997416798957,1,4,0.377888625953346
26,6,1,1,2.57183753186837,1,4,0.425312043866143
26,6,2,2,2.97576007409953,1,2,0.555342529900372
26,6,1,1,2.49251757212915,1,2,0.436721286037937
26,7,2,2,2.45920870616101,1,4,0.667548071127385
26,7,1,1,2.49217865499668,1,3,1.71553780185059
26,7,2,2,2.52595496107824,1,2,0.622164525091648
26,7,2,1,2.57589603494853,0,1,0.364136738935485
26,7,2,2,2.62324541108683,1,3,0.320693474030122
26,7,1,1,2.40787827200256,1,1,0.374187055975199
26,7,2,2,2.54157433891669,1,1,0.296240828931332
26,7,2,2,2.6403733228799,1,1,0.327041354961693
26,7,1,1,3.15682274987921,1,1,0.273936884012073
26,8,1,2,2.45850534294732,0,2,0.465195318916813
26,8,1,1,2.4065209759865,1,2,0.366245779907331
26,8,2,1,2.72295419499278,0,2,0.27612543082796
26,8,1,2,2.50851078704,0,1,1.5781292100437
26,8,1,1,2.50976757216267,1,3,0.640413674991578
26,8,2,2,2.49205089313909,1,3,0.294837068067864
26,8,2,2,2.42560268589295,1,1,0.274378801928833
26,8,1,2,2.58823980181478,0,1,0.243020076071844
26,8,1,2,2.6919411260169,0,3,1.52049314510077
26,9,1,1,2.45774815487675,1,3,0.334292915882543
26,9,2,2,2.57314276392572,1,3,0.319290857994929
26,9,2,2,2.75952293793671,1,1,0.288560535991564
26,9,1,1,3.24140015803277,1,3,0.671157611068338
26,9,1,2,3.17516367114149,0,1,0.269667863147333
26,9,2,1,2.80665489705279,0,1,0.26746534393169
26,9,1,1,2.52474415395409,1,4,0.307040490908548
26,9,2,2,2.48967827414162,1,4,0.327686408068985
26,9,1,1,2.55834846477956,1,4,0.462547114817426
26,10,2,2,2.42318486399017,1,1,1.2567921448499
26,10,2,1,2.67577812098898,0,1,0.380024285055697
26,10,2,2,2.45829413691536,1,2,0.279524410143495
26,10,2,2,2.48829336487688,1,4,0.469873755937442
26,10,1,1,2.65743953292258,1,2,1.46747311088257
26,10,1,1,2.50829155417159,1,2,0.43519077100791
26,10,2,2,2.44050158397295,1,2,0.808609585976228
26,10,2,2,2.94166552787647,1,1,0.288192379986867
26,10,2,2,2.45480015408248,1,1,1.97881338302977
26,11,2,2,2.459858906921,1,4,0.506934255827218
26,11,2,1,2.59196455194615,0,1,0.326981203164905
26,11,1,2,2.47518856404349,0,1,0.268806676845998
26,11,1,1,2.77417775592767,1,3,0.373370530083776
26,11,2,2,2.67334781307727,1,2,1.14251310215332
26,11,2,2,2.80866009206511,1,1,0.281627675052732
26,11,1,1,2.69152756500989,1,1,0.469177407911047
26,11,2,2,2.32392201991752,1,2,0.531054992927238
26,11,1,1,2.67424576892518,1,2,0.813740694895387
26,11,1,2,2.70770449191332,0,2,0.320978946983814
26,12,2,1,2.64312054892071,0,2,0.51025719800964
26,12,2,2,2.55744523997419,1,4,0.418057322036475
26,12,2,2,2.75959591008723,1,1,0.820282442960888
26,12,1,2,2.82599352998659,0,2,0.413669407833368
26,12,1,1,2.72591733117588,1,2,0.412512039067224
26,12,1,1,2.9220808991231,1,3,0.579661441966891
26,12,2,2,2.5739210920874,1,2,0.325902465963736
26,12,1,1,3.09260086389259,1,2,0.598991913022473
26,12,2,2,2.55719792400487,1,4,0.3271897980012
26,12,2,2,2.85875147604384,1,3,0.332852412946522
26,13,1,1,2.52577803889289,1,2,1.13387648202479
26,13,1,1,2.77557906298898,1,4,0.398916200967506
26,13,2,1,2.59059974388219,0,2,0.536215377040207
26,13,1,1,2.57400214904919,1,2,0.405721114948392
26,13,1,1,2.74262211308815,1,2,0.313713105162606
26,13,2,2,2.47216263995506,1,3,0.334166431101039
26,13,2,1,2.77474702405743,0,1,0.318448622012511
26,13,1,1,3.25932820118032,1,1,0.333057917188853
26,13,1,1,2.92159218294546,1,4,0.411867554998025
26,13,2,2,2.59311660798267,1,1,0.45869779214263
26,14,2,2,2.35899384901859,1,4,0.367637200048193
26,14,2,2,2.84135479293764,1,3,0.379513677908108
26,14,2,2,2.77598496805876,1,1,0.36407028301619
26,14,2,2,2.83839080715552,1,4,0.392256097868085
26,14,1,2,2.82412785408087,0,1,0.653416062006727
26,14,2,2,2.59287832700647,1,4,0.393244681879878
26,14,2,1,2.99182207509875,0,1,0.328628657851368
26,14,1,1,2.64187797089107,1,2,0.301170347956941
26,14,1,1,2.58824375108816,1,4,0.430767622077838
26,14,1,1,2.57581810001284,1,2,0.876606864854693
26,15,2,2,3.99495468009263,1,1,0.377800554968417
26,15,2,2,2.7067147269845,1,1,0.415281042922288
26,15,1,2,2.608989889035,0,1,0.332784133031964
26,15,2,2,2.77576964115724,1,1,0.314838418969885
26,15,2,2,2.77350182784721,1,2,0.254478472983465
26,15,2,2,2.59116318798624,1,2,0.29414979997091
26,15,1,1,2.9254110599868,1,1,0.269956419942901
26,15,2,2,2.74085188191384,1,1,0.280568395974115
26,15,1,2,2.92437859717757,0,2,0.293995622079819
26,15,2,1,3.22197842597961,0,2,0.308376901084557
26,16,2,1,2.45922099309973,0,3,0.392869362141937
26,16,2,2,2.60916099022143,1,3,0.366724230116233
26,16,2,1,3.20834725815803,0,1,0.282851825002581
26,16,2,2,2.65914756804705,1,2,0.268026659963652
26,16,1,1,2.77445221901871,1,1,0.255725231021643
26,16,2,1,2.74304598895833,0,3,0.318790136836469
26,16,1,1,2.42491795588285,1,4,0.326739009004086
26,16,2,2,2.95921262586489,1,1,0.294476033886895
26,16,1,2,2.52506314194761,0,2,0.294574034865946
26,16,2,2,3.08952071191743,1,2,0.286596672143787
26,17,1,1,2.64296466391534,1,4,0.282464860007167
26,17,2,2,2.47531259106472,1,2,0.317612738115713
26,17,2,1,2.72433277708478,0,2,0.301930959103629
26,17,2,1,2.57573218806647,0,3,0.678056765114889
26,17,2,1,2.30469833686948,0,1,0.366811920888722
26,17,1,2,2.39292420586571,0,1,0.324442885117605
26,17,1,2,2.75572080002166,0,2,0.294852181104943
26,17,2,1,2.95872421609238,0,2,0.282809521071613
26,17,1,2,2.75877106399275,0,2,0.314565408043563
26,17,1,1,2.47214114503004,1,3,0.46762029803358
26,18,2,1,2.4586908519268,0,3,0.340344625059515
26,18,2,2,2.47541670897044,1,4,0.308318408206105
26,18,1,1,2.55929328990169,1,3,0.341615771874785
26,18,1,1,3.0596286370419,1,2,0.319244351005182
26,18,1,2,2.65922376397066,0,2,0.718794429907575
26,18,1,1,2.62469769106247,1,2,0.327832051087171
26,18,1,2,2.59329924709164,0,1,0.25491666700691
26,18,1,1,2.54265993414447,1,2,0.293805137043819
26,18,2,2,2.60960782086477,1,2,0.294998931931332
