subject,run,stim_side,response,RT,accuracy,confidence,RT_conf
23,1,2,2,2.52347492100671,1,4,1.35269980109297
23,1,1,1,3.62534831301309,1,1,2.76764682214707
23,1,1,1,3.29062538105063,1,1,1.60311717889272
23,1,1,1,3.24047818197869,1,1,1.08267778507434
23,1,1,1,2.45726130297408,1,3,1.06371385301463
23,1,2,2,3.39097624900751,1,2,1.5267064939253
23,1,1,2,3.64000355103053,0,1,0.768626850098372
23,1,1,1,2.73962006298825,1,4,0.698709776857868
23,1,2,2,3.07359979907051,1,2,1.57879382395186
23,2,1,1,2.57474636589177,1,4,0.573570874053985
23,2,2,2,2.60730291600339,1,3,1.34576062089764
23,2,2,2,2.37228682497516,1,4,0.529185198945925
23,2,2,2,3.15838517691009,1,2,1.9182810569182
23,2,1,1,2.52348207915202,1,2,1.24632054707035
23,2,2,2,2.64129055594094,1,2,1.02984130289406
23,2,2,2,2.59006508090533,1,3,0.570183215197176
23,2,1,2,3.07353045092896,0,2,1.37252279603854
23,2,1,1,2.87358374800533,1,2,0.792249685153365
23,2,1,1,5.17413495411165,1,1,0.829567245906219
23,3,2,2,2.67756772181019,1,4,0.553678346099332
23,3,1,1,3.16040786495432,1,2,1.23416653601453
23,3,1,1,3.37346101808362,1,2,1.01635934994556
23,3,2,2,2.37475154409185,1,4,0.956519101047888
23,3,1,1,2.7070614779368,1,2,0.79640881693922
23,3,2,2,4.00945448200218,1,1,0.51409525796771
23,3,2,1,4.44022814789787,0,1,0.457358255051076
23,3,1,1,3.69041481101885,1,1,0.529914418002591
23,3,2,2,3.84073045593686,1,2,0.570055965101346
23,3,1,1,3.45637652091682,1,2,0.68647231394425
23,3,2,1,3.50667495699599,0,2,0.531479850178584
23,4,1,1,2.47594476118684,1,4,0.652808712096885
23,4,1,2,4.60622020298615,0,2,0.822256138082594
23,4,1,1,2.92300283699296,1,2,0.699738116003573
23,4,2,2,3.42472260002978,1,1,0.501760384067893
23,4,1,1,2.70667970203795,1,3,0.744612091919407
23,4,1,1,2.34056368982419,1,4,0.528637243900448
23,4,1,1,2.45640623103827,1,4,0.857794851996005
23,4,1,1,3.58877648203634,1,2,0.745171418879181
23,4,1,2,4.42402905295603,0,2,1.12253801710904
23,4,2,1,2.60785705107264,0,3,0.959038018016145
23,4,1,2,4.12372799706645,0,1,0.86132556386292
23,4,1,1,3.60681155789644,1,2,2.27030390989967
23,5,1,1,2.62435819301754,1,4,0.942650374956429
23,5,1,1,2.57311666710302,1,4,0.510713124880567
23,5,2,2,3.4901265129447,1,4,0.560991756850854
23,5,1,1,4.1908174699638,1,2,1.01949221896939
23,5,1,1,3.9572271220386,1,3,0.747353130951524
23,5,1,1,4.60738168796524,1,1,0.486248223111033
23,5,2,2,4.10559640498832,1,1,1.11403522291221
23,5,1,2,3.50688749598339,0,2,0.907054661074653
23,5,1,1,4.04016205482185,1,2,1.18600831599906
23,5,1,2,5.94002739386633,0,2,1.19323328090832
23,5,1,1,3.15746466489509,1,3,1.20356847997755
23,5,2,2,2.85628085304052,1,2,0.875603027874604
23,6,1,1,2.55822643195279,1,2,1.00926577206701
23,6,1,2,3.77323641185649,0,2,0.974813085980713
23,6,2,1,3.99029019684531,0,1,0.498283373890445
23,6,1,1,3.37325821095146,1,2,1.10449169599451
23,6,2,2,2.57319554802962,1,2,0.627452875021845
23,6,2,2,2.65647817892022,1,3,0.636574565898627
23,6,2,2,2.30730479513295,1,2,0.556953727966174
23,6,1,1,2.7894438279327,1,1,1.78284926014021
23,6,2,1,3.39040241600014,0,1,0.399904003133997
23,6,1,1,2.38999525504187,1,4,0.732702095992863
23,6,1,1,2.34020570502616,1,4,0.550661511020735
23,6,1,2,2.55752585199662,0,3,0.467180738924071
23,7,2,1,3.09136365400627,0,2,1.39220266486518
23,7,1,1,2.52541362913325,1,3,0.532266578869894
23,7,2,2,2.65614528395236,1,4,0.432123128091916
23,7,2,1,3.45739458315074,0,1,0.929274888942018
23,7,2,1,3.42478822800331,0,1,0.446715709986165
23,7,2,1,2.60630933521315,0,2,0.87723957397975
23,7,2,1,3.01283134613186,0,2,0.731805693823844
23,7,2,2,2.50771597400308,1,2,0.498909956077114
23,7,2,2,2.94170210091397,1,3,0.86885759793222
23,7,1,1,3.12392042204738,1,4,0.765442002099007
23,7,2,2,2.57348719798028,1,3,0.664273381000385
23,7,2,1,4.09196558501571,0,3,1.33970981510356
23,8,1,1,3.70836352999322,1,2,0.686670762021095
23,8,2,2,2.52410827111453,1,3,0.877878763945773
23,8,1,1,3.10853661596775,1,2,0.464352808892727
23,8,1,1,2.10470854607411,1,4,0.711976723978296
23,8,2,2,3.85795990214683,1,1,1.58525221887976
23,8,1,1,2.39091814612038,1,4,0.713184533175081
23,8,1,1,2.69257115595974,1,4,0.459240674972534
23,8,1,1,2.52525293594226,1,3,0.467268829001114
23,8,2,1,3.8085802400019,0,3,0.478992326185107
23,8,1,1,2.87454151199199,1,2,0.351478783180937
23,8,1,1,2.80778088304214,1,2,0.378804290900007
23,9,1,1,2.90673582907766,1,2,0.579845580970868
23,9,1,1,2.42462338297628,1,2,0.342363120988011
23,9,2,1,3.22649971302599,0,2,0.418613398913294
23,9,1,1,2.44094485184178,1,1,0.94181828899309
23,9,2,2,3.45970114599913,1,3,0.30918306694366
23,9,2,1,3.39328524819575,0,2,0.446612048894167
23,9,2,2,3.14289422892034,1,3,0.627968554850668
23,9,2,2,2.32525339513086,1,3,0.438339310931042
23,9,2,2,2.79157178197056,1,2,0.380209626164287
23,9,1,1,2.32655206695199,1,4,0.425777602009475
23,9,1,1,2.49271618202329,1,3,0.439348058076575
23,10,2,2,3.20909972395748,1,2,0.52553435601294
23,10,2,2,3.86021260102279,1,2,0.446260801982135
23,10,1,2,4.83940312894993,0,1,1.29960939800367
23,10,1,1,2.77671726699919,1,2,0.387799493968487
23,10,2,2,3.25846319901757,1,2,0.386777411913499
23,10,2,2,3.84004317596555,1,2,0.667674520052969
23,10,2,2,2.78987520490773,1,3,0.45071694185026
23,10,2,2,3.65814773691818,1,2,0.282140073832124
23,10,2,2,3.26138070598245,1,4,0.828562773996964
23,10,2,2,3.256441680016,1,3,0.37409587088041
23,10,1,1,3.57363908784464,1,2,0.488584326114506
23,10,1,1,2.40742855216376,1,3,0.406942658126354
23,11,1,2,2.64258487592451,0,3,1.72347034793347
23,11,1,1,2.45747655397281,1,3,0.508075281046331
23,11,2,2,3.17522187600844,1,2,0.692514027934521
23,11,1,1,2.70952716493048,1,2,0.644221654161811
23,11,2,2,3.57628058688715,1,2,0.352156983921304
23,11,1,2,2.57411280786619,0,2,0.335432148072869
23,11,2,2,2.34054614906199,1,2,0.46338519314304
23,11,1,1,2.40908038197085,1,4,0.470694018062204
23,11,1,2,3.64388321107253,0,2,0.983395143179223
23,11,2,2,3.67215108522214,1,3,0.984203869011253
23,11,2,2,3.92227853718214,1,2,0.418583546997979
23,11,1,2,3.21000169008039,0,2,0.28966590994969
23,11,2,1,2.47647759784013,0,2,0.302201627055183
23,12,1,1,2.55665045091882,1,3,0.565469052875414
23,12,1,2,3.28907899791375,0,2,0.426227172836661
23,12,1,2,2.5921781018842,0,3,1.26519027701579
23,12,2,2,2.84242469910532,1,2,0.536550285993144
23,12,2,1,2.55576486489736,0,2,0.489619686035439
23,12,1,1,2.50942510995083,1,2,0.439682284137234
23,12,2,1,2.90488406992517,0,2,0.415269949007779
23,12,2,2,2.6896298979409,1,2,0.606305833905935
23,12,1,1,3.23932011821307,1,3,0.465613547945395
23,12,2,2,3.14194485009648,1,3,2.1676472730469
23,12,1,1,2.80551358591765,1,3,0.867631636094302
23,12,2,1,4.17424168321304,0,1,0.587510220939294
23,12,1,1,2.92400787305087,1,1,0.884354952024296
23,13,1,1,2.57554300315678,1,2,0.875565378926694
23,13,2,1,3.34165478590876,0,1,0.552379900123924
23,13,1,1,3.09287288505584,1,2,0.430746427038684
23,13,2,2,3.40870940708555,1,1,0.322124651167542
23,13,1,1,2.55976387113333,1,3,0.363343472825363
23,13,1,1,2.63873102283105,1,4,0.686963667860255
23,13,2,2,3.62272323202342,1,2,0.535664182854816
23,13,1,2,3.9554397391621,0,3,0.521424068836495
23,13,2,1,4.24233629205264,0,2,0.437535513890907
23,13,2,2,2.35763380513526,1,4,0.27635716018267
23,13,1,2,3.75597836403176,0,3,0.879225254058838
23,13,1,1,4.05970156705007,1,2,0.553901916136965
23,13,1,2,3.22603780799545,0,2,0.439013363793492
23,14,2,2,2.32400340796448,1,3,0.314652879955247
23,14,1,1,2.98906365712173,1,2,0.34675232693553
23,14,1,2,2.42571251094341,0,2,0.373018258949742
23,14,2,2,2.2924961890094,1,4,0.427042003022507
23,14,2,2,2.8547661988996,1,3,0.83086268696934
23,14,2,2,2.60467724292539,1,2,0.433205681154504
23,14,1,2,2.9440354120452,0,1,0.496191152837127
23,14,2,2,2.27645275415853,1,3,0.42530102096498
23,14,2,2,2.97757087694481,1,1,0.914482471998781
23,14,2,2,3.19278481299989,1,2,0.906130681047216
23,14,2,2,2.9579898158554,1,1,1.41388781601563
23,14,2,1,2.94287090189755,0,2,0.528584204846993
23,14,1,1,2.79196595400572,1,4,0.705027111107484
23,15,1,1,2.0208606380038,1,4,0.663198816822842
23,15,2,2,3.37185175390914,1,2,1.12748282402754
23,15,1,1,2.7911931630224,1,2,0.614728443790227
23,15,2,2,2.42589800595306,1,3,0.440137631027028
23,15,1,2,2.27450585388578,0,3,0.380834195995703
23,15,2,2,2.42606001603417,1,3,0.497998389881104
23,15,1,1,3.17530074995011,1,2,0.26737219793722
23,15,2,2,2.39259730698541,1,2,0.339972835034132
23,15,2,2,3.84335865685716,1,1,0.381335153011605
23,15,1,2,3.24029736197554,0,1,2.99517087591812
23,15,1,1,2.82540756696835,1,3,0.755992138991132
23,15,2,2,2.39151112386025,1,2,0.698382468195632
23,15,2,2,2.73801131802611,1,4,0.797023785999045
23,16,1,1,2.67590896901675,1,3,0.692581800976768
23,16,1,2,2.33861322887242,0,2,1.16671818797477
23,16,2,2,2.39197310083546,1,4,0.548578242771327
23,16,2,1,2.5262075450737,0,3,0.458518208004534
23,16,1,2,2.95936873508617,0,2,1.08295098692179
23,16,2,2,2.40523598901927,1,1,0.468322440981865
23,16,2,2,3.30962309800088,1,3,0.511601920938119
23,16,2,1,3.01485500414856,0,1,0.499957778025419
23,16,2,2,2.371385299135,1,4,0.458314575022087
23,16,1,1,3.02704032207839,1,2,0.322249748045579
23,16,2,1,2.52584209898487,0,1,0.419663629028946
23,16,2,2,2.89143175305799,1,1,0.844294663984329
23,16,2,2,2.42498334706761,1,3,0.399440555134788
23,16,1,1,2.48829018999822,1,2,0.739550692029297
