subject,run,stim_side,response,RT,accuracy,confidence,RT_conf
2,1,2,1,2.95675122599641,0,2,0.605907124998339
2,1,2,2,3.891805938998,1,1,0.33846792300028
2,1,2,1,2.52264434000244,0,2,0.379272192003555
2,1,2,1,2.37360652999632,0,3,0.445026676999987
2,1,2,2,2.19025850800244,1,3,0.250934271003644
2,1,1,1,2.45654162300343,1,4,0.372202523001761
2,1,1,1,2.27287167699978,1,1,0.32702685300319
2,1,1,1,2.33852410899999,1,3,0.33249352400162
2,2,1,2,2.80733550999867,0,1,0.47017564199632
2,2,1,2,2.37334067399934,0,3,0.364577375999943
2,2,2,1,2.53992014299729,0,2,0.209984301000077
2,2,2,1,2.3403645599974,0,2,0.572869881005317
2,2,1,2,2.0204026690044,0,2,0.295127208999475
2,2,1,1,2.33944624000287,1,2,0.378493509997497
2,2,2,1,2.27420570800314,0,3,0.256288021999353
2,2,1,2,2.35667747299885,0,1,0.268537277006544
2,3,1,1,2.02099864999764,1,4,0.347118629993929
2,3,1,1,2.27352396499919,1,3,0.159280369000044
2,3,1,2,2.02050279099785,0,2,0.55661001700355
2,3,2,1,2.55851498999982,0,2,0.269342604995472
2,3,2,2,2.15491437899618,1,3,0.156648804004362
2,3,1,1,2.19019269400451,1,3,0.0705960470004356
2,3,1,2,2.30677170400304,0,3,0.184445577004226
2,4,2,2,2.32566039299854,1,3,0.223859928999445
2,4,2,2,2.35666008100088,1,4,0.0679855720009073
2,4,1,1,2.02038040600019,1,2,0.543768152005214
2,4,2,1,2.37362316800136,0,2,0.187292615999468
2,4,1,1,2.23943783399591,1,3,0.10025575599866
2,4,1,1,2.02041460199689,1,4,0.191704689001199
2,5,2,2,2.14174474700121,1,4,0.211241958997562
2,5,1,1,2.25437156599946,1,4,0.223273955001787
2,5,1,1,2.25848743299866,1,4,0.243644368005334
2,5,1,1,2.08970974299882,1,4,0.152591747006227
2,5,2,2,2.27321762000065,1,4,0.183997923995776
2,5,2,2,2.28988446099538,1,4,0.209361627996259
2,6,1,2,3.37476977799815,0,2,0.734619307993853
2,6,1,1,2.94047807600145,1,4,0.255367489997298
2,6,1,1,2.40613534099975,1,4,0.171823831995425
2,6,1,1,2.43980594500317,1,4,0.197055481999996
2,6,1,1,2.30629821299954,1,4,0.158305231001577
2,6,1,1,2.43956577000063,1,4,0.191518452003947
2,6,1,1,2.3062264379987,1,4,0.205616800994903
2,7,2,1,2.47501405599905,0,3,0.416288889005955
2,7,1,1,2.45531078799831,1,4,0.153699432004942
2,7,2,2,2.20613320700068,1,2,0.438355737998791
2,7,2,2,2.83983778400579,1,1,0.132943568998598
2,7,1,1,2.50786999399861,1,2,0.0750261869980022
2,7,2,1,2.27427297599934,0,4,0.0882235429962748
2,7,1,1,2.89010306300042,1,3,0.346652112006268
2,7,2,2,2.32260560599389,1,4,0.144018618004338
2,8,2,2,2.04023603100359,1,4,0.184494683999219
2,8,1,1,2.43994123599987,1,4,0.216566463997879
2,8,2,2,2.07287868699495,1,4,0.19048538399511
2,8,2,2,2.12259360099415,1,4,0.172247315997083
2,8,1,1,2.35672310600057,1,4,0.0942636999971
2,8,1,2,2.38942509100161,0,4,0.132130947000405
2,8,2,2,2.20577277200209,1,4,0.489116368000396
2,8,2,2,2.35718498999631,1,3,0.367711368002347
2,9,2,1,2.90945825100061,0,2,0.627100506004354
2,9,1,2,2.83972465199622,0,1,0.249387053998362
2,9,1,2,2.42535580399999,0,2,0.13871979599935
2,9,1,1,3.84104512500198,1,1,0.139502415004245
2,9,2,2,2.79027661599685,1,2,0.0941447619989049
2,9,1,1,2.89002001300105,1,2,0.126618271002371
2,9,2,1,2.35696840900346,0,3,0.361701943002117
2,9,1,1,2.02049280999927,1,4,0.210096484006499
2,9,2,2,2.10672232700017,1,4,0.100923029000114
2,10,1,1,2.02076282900089,1,4,0.222007147000113
2,10,1,1,2.39191238100466,1,4,0.165683052000531
2,10,1,1,2.15635915500025,1,2,0.254469207000511
2,10,2,2,2.02326350499789,1,4,0.208631266003067
2,10,2,2,2.37322013999801,1,2,0.157256824000797
2,10,2,1,2.42302118499356,0,2,0.0874145839989069
2,10,2,2,2.77522553800372,1,3,0.211112457996933
2,10,2,2,2.70854662799684,1,2,0.0679383940005209
2,10,1,1,2.09046064900031,1,4,0.131735189002939
2,11,2,1,2.3596803420005,0,3,0.171528077000403
2,11,2,2,2.93829662100325,1,1,0.113440651002747
2,11,1,1,2.7063178640019,1,2,0.0682980160054285
2,11,1,1,2.02043160199537,1,4,0.106792842001596
2,11,1,1,2.22321357600595,1,4,0.0946781160018872
2,11,2,2,2.48973599700548,1,4,0.216114654002013
2,11,2,2,2.19140442400385,1,4,0.120129574999737
2,11,1,1,2.60951376999583,1,4,0.0555478090027464
2,11,1,1,2.84232277800038,1,2,0.489228930993704
2,12,1,1,2.02093913099816,1,4,0.230202725993877
2,12,2,2,2.02283467300003,1,4,0.216631014998711
2,12,1,1,2.1582276850022,1,4,0.138330859001144
2,12,1,1,2.05606087199703,1,4,0.138748691999353
2,12,2,2,2.32530973800021,1,3,0.158762395003578
2,12,2,2,6.19391003800411,1,3,0.31476086100156
2,12,2,2,2.24004440000135,1,4,0.11837306599773
2,12,1,2,3.3573944239979,0,2,0.392410136002582
2,12,1,1,2.33776039100485,1,2,0.194952630001353
2,12,2,2,2.04246970699751,1,4,0.198921912000515
2,13,1,2,2.39092249999521,0,3,0.296311515994603
2,13,2,2,2.37478676599858,1,3,0.216975239003659
2,13,1,1,2.14163531100348,1,4,0.0879322239998146
2,13,2,2,2.59110155500093,1,2,0.126109333999921
2,13,1,1,2.17231227999582,1,4,0.120931035002286
2,13,2,2,2.55778546199872,1,3,0.114013974001864
2,13,1,2,2.68934771699423,0,1,0.197577821993036
2,13,1,1,2.58982993200334,1,3,0.151074769004481
2,13,1,1,2.07440095300262,1,4,0.13216614400153
2,13,2,1,2.25473616799718,0,4,0.0935556849944987
2,13,1,1,2.24166171199613,1,2,0.283559519994014
2,14,2,2,2.35742250399926,1,2,0.766832772998896
2,14,2,1,2.55783081499976,0,1,0.581391307998274
2,14,2,2,2.68963303900091,1,4,0.270569054999214
2,14,1,2,2.40765207899676,0,2,0.34632434300147
2,14,1,2,2.22342001799552,0,2,0.197888374001195
2,14,1,2,2.02224104700144,0,1,0.263417324000329
2,14,1,1,2.30448357299611,1,2,0.155601314996602
2,14,1,1,2.85629230000632,1,1,0.333906659005152
2,14,1,2,2.30897036899842,0,2,0.20157540999935
2,14,1,1,2.42442380000284,1,2,0.147146227995108
2,14,1,2,2.20627948999754,0,3,0.262702589003311
2,14,1,1,2.4736663940057,1,2,0.194478139004786
2,15,1,1,2.15951775699796,1,2,0.423043083996163
2,15,2,1,2.42318411399901,0,1,0.283569744999113
2,15,2,2,2.02073053999629,1,3,0.219155255996156
2,15,2,1,2.29148295799678,0,3,0.354440988994611
2,15,2,2,2.15609816800134,1,3,0.277020954999898
2,15,1,2,2.02031106500363,0,4,0.203507562000595
2,15,1,1,2.02532179799891,1,3,0.295335789000092
2,15,1,2,3.79044626800169,0,4,0.158394598001905
2,15,2,1,2.02028273500036,0,3,0.0493008330013254
2,15,1,1,2.23946412399528,1,3,0.321180235005158
2,15,2,1,2.37542958700215,0,2,0.190301862996421
2,15,2,1,2.55649218100007,0,4,0.133318750005856
2,16,2,1,2.47216931999719,0,1,0.606195597996702
2,16,1,2,3.14127161500073,0,1,0.328989970999828
2,16,2,2,2.02052395699866,1,4,0.236943264004367
2,16,1,1,2.22519135099719,1,2,0.265242535999278
2,16,1,1,2.37519009400421,1,3,0.107676474995969
2,16,2,1,2.19237975800206,0,4,0.0685800220016972
2,16,1,1,2.15801281599852,1,2,0.0811043520006933
2,16,2,1,2.32638782900176,0,2,0.222451772002387
2,16,1,1,2.02037014099915,1,3,0.0617251479998231
2,16,2,2,2.40869371900044,1,2,0.213030499995511
2,16,1,1,2.05482001999917,1,3,0.69594831699942
2,17,1,1,2.03970547299832,1,2,0.400194278998242
2,17,2,1,2.65883728200424,0,2,0.250783480994869
2,17,2,2,2.02007616899937,1,3,0.0486704889990506
2,17,1,1,2.82524209599796,1,1,0.210582839004928
2,17,1,2,2.02095195000584,0,3,0.133556827997381
2,17,1,1,2.0201922510023,1,4,0.1271889799973
2,17,2,2,2.02053915600118,1,4,0.0742262920030043
2,17,1,1,2.2565531079963,1,3,0.144838686006551
2,17,2,2,2.24186819900206,1,4,0.130252117000055
2,17,1,1,2.1068994390007,1,4,0.158839382995211
2,18,1,1,2.02078577299835,1,4,0.255769918003352
2,18,1,2,4.00836872399668,0,2,0.137290439997741
2,18,2,2,2.02410628900543,1,4,0.23554686299758
2,18,2,1,2.27375305900205,0,1,1.15656353400118
2,18,1,2,2.27214959499543,0,2,0.267711636006425
2,18,1,1,2.37585469800251,1,4,0.139383547997568
2,18,2,2,2.25573288599844,1,4,0.133339510000951
2,18,2,2,2.62535144900176,1,3,0.210090792999836
2,18,2,1,2.45931472899974,0,4,0.15236751500197
2,18,1,1,2.42397767499642,1,3,0.133560989001126
2,19,2,2,2.14197962800245,1,4,0.5420754509978
2,19,1,1,2.29246258000057,1,4,0.159320071994443
2,19,2,2,2.39216341899737,1,2,0.199022016000526
2,19,1,1,2.57497611000144,1,2,0.268810919005773
2,19,2,2,2.02035211899783,1,4,0.230174235999584
2,19,2,2,2.24201649399765,1,1,0.203579226996226
2,19,1,1,2.02041254899814,1,4,0.289800291000574
2,19,2,2,2.10988115899818,1,3,0.112850975994661
2,19,2,2,2.45823485199799,1,2,0.216954476003593
2,19,2,2,2.34056482299638,1,2,0.140268513001502
2,20,1,1,2.3227406799997,1,2,0.322693369998888
2,20,2,2,2.02044735199888,1,4,0.0879723540056148
2,20,1,2,2.22528236699873,0,1,0.139537767994625
2,20,1,2,2.28906238100171,0,2,0.197127687999455
2,20,2,2,2.79202628799976,1,2,0.208608910004841
2,20,2,2,2.02029849500104,1,4,0.398403847997542
2,20,1,1,2.65731107100146,1,2,0.177707129005285
2,20,1,2,2.24206273100572,0,2,0.156157307996182
2,20,1,2,2.09160463599983,0,2,0.263108892999298
2,20,1,1,2.55894988699583,1,2,1.0353652010017
